{
  "name": "sidebar-merchant",
  "css_prefix_text": "icon-",
  "css_use_suffix": false,
  "hinting": true,
  "units_per_em": 1000,
  "ascent": 850,
  "glyphs": [
    {
      "uid": "159c59bab27bd61869c9836a49a48b36",
      "css": "dashboard",
      "code": 59392,
      "src": "custom_icons",
      "selected": true,
      "svg": {
        "path": "M1086.8 344.9L672.2 709.5C671.6 710 671.1 710.4 670.6 711A70.8 70.8 0 0 0 720.6 831.9 71.8 71.8 0 0 0 772.3 809.5L1136.8 394.9A35.4 35.4 0 0 0 1086.8 344.9ZM750 0A749.8 749.8 0 0 0 35.6 978.3 31.3 31.3 0 0 0 65.4 1000H1434.6A31.3 31.3 0 0 0 1464.4 978.3 749.8 749.8 0 0 0 750 0ZM1343.7 781.2H1435.3A684.5 684.5 0 0 1 1411.4 937.5H88.6A684.5 684.5 0 0 1 64.7 781.2H156.2A31.2 31.2 0 1 0 156.2 718.8H64.1A682.1 682.1 0 0 1 140.1 434L220.1 480.2A31.2 31.2 0 0 0 251.4 426L171.5 379.9A692 692 0 0 1 379.9 171.5L426.1 251.4A31.2 31.2 0 1 0 480.1 220.2L433.9 140.2A682.1 682.1 0 0 1 718.8 64.1V156.2A31.2 31.2 0 1 0 781.2 156.2V64.1A682.1 682.1 0 0 1 1066 140.1L1019.8 220.2A31.2 31.2 0 1 0 1073.9 251.4L1120 171.5A692 692 0 0 1 1328.5 379.9L1248.6 426.1A31.2 31.2 0 0 0 1279.8 480.2L1359.9 434A682.2 682.2 0 0 1 1435.9 718.8H1343.7A31.2 31.2 0 1 0 1343.7 781.3Z",
        "width": 1500
      },
      "search": [
        "dashboard"
      ]
    },
    {
      "uid": "f9078f8f75c94bee09fd1ad215ad4b2b",
      "css": "order-history",
      "code": 59393,
      "src": "custom_icons",
      "selected": true,
      "svg": {
        "path": "M951.6 616.9H709.7V428.8L971.9 164.9A96.7 96.7 0 0 0 904 0 95.1 95.1 0 0 0 836.2 28.3L709.7 155.6V113.6A81 81 0 0 0 629 32.5H513.2A48.3 48.3 0 0 0 467.7 0H241.9A48.3 48.3 0 0 0 196.5 32.5H80.6A81 81 0 0 0 0 113.6V795.4A81 81 0 0 0 80.6 876.6H516.1V957.8A48.6 48.6 0 0 0 564.5 1006.5H951.6A48.6 48.6 0 0 0 1000 957.8V665.6A48.6 48.6 0 0 0 951.6 616.9ZM774.2 681.8V714.3H741.9V681.8H709.7V714.3H677.4V649.3H838.7V714.3H806.4V681.8ZM516.1 665.6V779.2H96.8V129.9H196.5A48.3 48.3 0 0 0 241.9 162.3H467.7A48.3 48.3 0 0 0 513.2 129.9H612.9V253L437.7 429.3 389.9 557.8A43.8 43.8 0 0 0 430.6 616.9 43.1 43.1 0 0 0 445.8 614.1L573.4 565.9 612.9 526.2V616.9H564.5A48.6 48.6 0 0 0 516.1 665.6ZM564.5 529L530.9 495.1 798.4 225.9 832 259.7ZM457.9 467.6L535.4 545.6 434.4 583.7A11.5 11.5 0 0 1 419.4 573.2 11.1 11.1 0 0 1 420.1 569.2ZM764.7 146.1L790.3 120.4 880.4 211 854.8 236.8ZM775.6 202.9L508.1 472.2 474.4 438.3 741.9 169.1ZM677.4 616.9H645.2V493.7L677.4 461.3ZM859 51.2A63.1 63.1 0 0 1 904 32.5 64.2 64.2 0 0 1 949.1 141.9L903.2 188.1 813.1 97.4ZM677.4 113.6V188.1L645.2 220.5V129.9A32.4 32.4 0 0 0 612.9 97.4H516.1V64.9H629.1A48.6 48.6 0 0 1 677.4 113.6ZM225.8 48.7A16.2 16.2 0 0 1 241.9 32.5H467.7A16.2 16.2 0 0 1 483.9 48.7V113.6A16.2 16.2 0 0 1 467.7 129.9H241.9A16.2 16.2 0 0 1 225.8 113.6ZM80.6 844.1A48.6 48.6 0 0 1 32.3 795.4V113.6A48.6 48.6 0 0 1 80.6 64.9H193.6V97.4H96.8A32.4 32.4 0 0 0 64.5 129.9V779.2A32.4 32.4 0 0 0 96.8 811.7H516.1V844.1ZM967.7 957.8A16.2 16.2 0 0 1 951.6 974H564.5A16.2 16.2 0 0 1 548.4 957.8V665.6A16.2 16.2 0 0 1 564.5 649.3H645.2V746.7H871V649.3H951.6A16.2 16.2 0 0 1 967.7 665.6ZM774 909.1H806.5V941.5H774ZM902.6 909.1H935.1V941.5H902.6ZM837.7 909.1H870.1V941.5H837.7ZM772.7 844.1H935.1V876.6H772.7ZM313.2 167.1L285.5 194.8H129.9V357.1H292.2V234L336.1 190ZM259.7 324.7H162.3V227.3H253L211.1 269.2 190 248.3 167.1 271.2 211.1 315.2 259.7 266.5ZM129.9 551.9H292.2V389.6H129.9ZM162.3 422.1H259.7V519.5H162.3ZM129.9 746.7H292.2V584.4H129.9ZM162.3 616.9H259.7V714.3H162.3ZM354.5 194.8H484.4V227.3H354.5ZM354.5 259.7H484.4V292.2H354.5ZM354.5 324.7H484.4V357.1H354.5ZM354.5 649.3H484.4V681.8H354.5ZM354.5 714.3H484.4V746.7H354.5Z",
        "width": 1000
      },
      "search": [
        "order-history"
      ]
    },
    {
      "uid": "8b07b3f5855b21f45438f556492a35b0",
      "css": "outlets",
      "code": 59394,
      "src": "custom_icons",
      "selected": true,
      "svg": {
        "path": "M266.7 733.3H300V766.7H266.7ZM366.7 733.3H400V766.7H366.7ZM683.3 650A83.3 83.3 0 1 0 766.7 566.7 83.3 83.3 0 0 0 683.3 650ZM816.7 650A50 50 0 1 1 766.7 600 50 50 0 0 1 816.7 650ZM824.7 888.5C875.3 823.2 950 715.7 950 650A183.6 183.6 0 0 0 850 486.9V274A66.3 66.3 0 0 0 883.4 216.7V166.7A15.6 15.6 0 0 0 882.2 160.5L850 80.2V16.7A16.7 16.7 0 0 0 833.3 0H100A16.7 16.7 0 0 0 83.3 16.7V80.2L51.2 160.5A15.6 15.6 0 0 0 50 166.7V216.7A66.3 66.3 0 0 0 83.3 274V883.3A16.7 16.7 0 0 0 100 900H669.9C648.4 909.3 633.4 923 633.4 941.7 633.4 981.7 702.5 1000 766.7 1000S900 981.7 900 941.7C900 912.8 864.8 896.2 824.7 888.5ZM916.7 650C916.7 714.5 817.8 846.2 766.7 907.7 715.5 846.2 616.7 714.5 616.7 650A150 150 0 0 1 916.7 650ZM183.3 533.3V366.7H750V467.5A183.1 183.1 0 0 0 625.4 533.3ZM850 183.3V216.7A33.3 33.3 0 1 1 783.3 216.7V183.3ZM116.7 33.3H816.7V66.7H116.7ZM111.3 100H822L842 150H91.3ZM750 183.3V216.7A33.3 33.3 0 1 1 683.3 216.7V183.3ZM650 183.3V216.7A33.3 33.3 0 1 1 583.3 216.7V183.3ZM550 183.3V216.7A33.3 33.3 0 1 1 483.3 216.7V183.3ZM450 183.3V216.7A33.3 33.3 0 1 1 383.3 216.7V183.3ZM350 183.3V216.7A33.3 33.3 0 1 1 283.3 216.7V183.3ZM250 183.3V216.7A33.3 33.3 0 1 1 183.3 216.7V183.3ZM83.3 216.7V183.3H150V216.7A33.3 33.3 0 1 1 83.3 216.7ZM316.7 866.7H233.3V633.3H316.7ZM433.3 866.7H350V633.3H433.3ZM466.7 866.7V616.7A16.7 16.7 0 0 0 450 600H216.7A16.7 16.7 0 0 0 200 616.7V866.7H116.7V283.3A66.1 66.1 0 0 0 166.7 260.3 65.9 65.9 0 0 0 266.7 260.3 65.9 65.9 0 0 0 366.7 260.3 65.9 65.9 0 0 0 466.7 260.3 65.9 65.9 0 0 0 566.7 260.3 65.9 65.9 0 0 0 666.7 260.3 65.9 65.9 0 0 0 766.7 260.3 66.1 66.1 0 0 0 816.7 283.3V473.8A170.7 170.7 0 0 0 783.3 467.5V350A16.7 16.7 0 0 0 766.7 333.3H166.7A16.7 16.7 0 0 0 150 350V550A16.7 16.7 0 0 0 166.7 566.7H603.5A182 182 0 0 0 583.3 650C583.3 708.7 643.2 801 692 866.7ZM766.7 966.7C702.7 966.7 668.7 948.3 666.7 942 668.2 936.8 689.5 923.7 732.7 918.8 744.5 933.3 752.7 942.7 754.2 944.3A16.7 16.7 0 0 0 779.2 944.3C780.7 942.7 788.8 933.3 800.7 918.8 843.8 923.7 865.2 936.8 866.7 941.3 864.7 948.3 830.7 966.7 766.7 966.7Z",
        "width": 1000
      },
      "search": [
        "outlets"
      ]
    },
    {
      "uid": "74ed6e49b891ddb03e032a1feedc69b1",
      "css": "notification",
      "code": 59395,
      "src": "custom_icons",
      "selected": true,
      "svg": {
        "path": "M783.7 525V375.1C784.5 260.8 707.6 185 641.6 154.8 622.7 146.2 603.2 139.5 583.3 134.6V125C583.3 79.1 546 41.7 500 41.7S416.7 79.1 416.7 125V136C398.8 140.8 381.3 147.1 364.2 155 291.3 188.6 217.3 269.7 216.7 375V525C216.7 631.5 179.1 722.8 104.9 796.5 100.5 800.9 98.9 807.4 100.8 813.4S107.7 823.7 113.8 824.8L272 852.1C301.5 857.2 328.6 861.3 354.4 864.8 383.5 921.8 440.6 958.4 503 958.4 565.5 958.4 622.6 921.8 651.6 864.7 677.4 861.3 704.4 857.2 733.7 852.1L891.8 824.8C898 823.7 903 819.3 904.9 813.4 906.8 807.4 905.2 800.9 900.8 796.5 823.1 719.3 783.7 628 783.7 525ZM450 125C450 97.4 472.4 75 500 75S550 97.4 550 125V128C516.8 123.3 483.1 123.5 450 128.8V125ZM503.1 925C460.9 925 421.4 904 396.1 869.8 433.3 873.6 468.1 875.5 502.9 875.5 537.8 875.5 572.6 873.6 610 869.7 584.7 904 545.3 925 503.1 925ZM728 819.2C696 824.7 666.7 829.2 639 832.8 639 832.8 638.9 832.8 638.9 832.8 626.7 834.3 614.8 835.6 603.2 836.8 603.1 836.8 603 836.8 602.9 836.8 592.3 837.9 581.9 838.8 571.6 839.5 569.6 839.6 567.7 839.8 565.8 839.9 556.9 840.5 548 840.9 539.3 841.3 537.5 841.3 535.7 841.4 533.9 841.5 513.2 842.2 492.7 842.2 472 841.5 470.2 841.4 468.3 841.3 466.4 841.3 457.8 840.9 449.1 840.5 440.4 839.9 438.3 839.8 436.2 839.6 434.1 839.5 424.1 838.8 414 837.9 403.7 836.9 403.3 836.9 402.9 836.8 402.6 836.8 391 835.6 379.3 834.3 367.2 832.8 367.1 832.8 367.1 832.8 367 832.8 339.2 829.2 309.8 824.7 277.7 819.2L150 797.2C216.4 721.3 250 629.9 250 525V375.1C250.6 284.5 314.8 214.5 378.2 185.3 397 176.6 416.6 170.1 436.5 165.5 436.6 165.5 436.8 165.5 437 165.5 478.1 156.3 521.8 155.8 563.3 164.4 563.5 164.4 563.8 164.3 564 164.3 585.7 168.9 607.1 175.7 627.7 185.2 689.2 213.3 751 282.8 750.4 375V525C750.4 625.6 786.6 719.1 855.6 797.2L728 819.2ZM607 230.6C542.4 201.1 463.3 201.1 399.1 230.7 362.6 247.5 300.5 296.9 300 374.9 300 384.1 307.4 391.6 316.6 391.7 316.6 391.7 316.6 391.7 316.7 391.7 325.8 391.7 333.3 384.3 333.3 375.1 333.7 313.8 383.6 274.5 413.1 260.9 468.6 235.3 537.2 235.4 593.1 260.9 601.5 264.8 611.3 261.1 615.2 252.7 619 244.3 615.3 234.5 607 230.6ZM80 379.9C73.5 373.4 63 373.4 56.5 379.9 20.1 416.3 0 464.8 0 516.4 0 568 20.1 616.5 56.5 652.9 59.7 656.1 64 657.8 68.3 657.8S76.8 656.1 80 652.9C86.5 646.4 86.5 635.8 80 629.3 49.9 599.2 33.3 559.1 33.3 516.4 33.3 473.7 49.9 433.6 80 403.5 86.5 396.9 86.5 386.4 80 379.9ZM138.4 619.8C142.7 619.8 147 618.2 150.2 615 156.7 608.4 156.7 597.9 150.2 591.4 107.6 548.8 107.6 479.4 150.2 436.8 156.7 430.3 156.7 419.7 150.2 413.2S133.2 406.7 126.6 413.2C71 468.8 71 559.3 126.6 614.9 129.9 618.2 134.2 619.8 138.4 619.8ZM943.5 379.9C937 373.4 926.5 373.4 920 379.9S913.5 396.9 920 403.5C950.1 433.6 966.7 473.7 966.7 516.4 966.7 559.1 950.1 599.2 920 629.3 913.5 635.8 913.5 646.4 920 652.9 923.2 656.1 927.5 657.8 931.8 657.8S940.3 656.1 943.5 652.9C980 616.5 1000 568 1000 516.4 1000 464.8 980 416.3 943.5 379.9ZM849.8 413.2C843.3 419.7 843.3 430.3 849.8 436.8 892.4 479.4 892.4 548.8 849.8 591.4 843.3 597.9 843.3 608.4 849.8 615 853.1 618.2 857.3 619.8 861.6 619.8S870.1 618.2 873.4 615C929 559.3 929 468.8 873.4 413.2 866.9 406.7 856.3 406.7 849.8 413.2Z",
        "width": 1000
      },
      "search": [
        "notification"
      ]
    },
    {
      "uid": "1f98b3ee58a94a94807791fc0706b179",
      "css": "merchant",
      "code": 59396,
      "src": "custom_icons",
      "selected": true,
      "svg": {
        "path": "M954 876.8H937.4V442.2C975 418 1000 375.8 1000 327.8 1000 325.2 999.3 322.7 998.1 320.5L881.8 117.1C873.7 102.8 858.4 93.9 841.9 93.9H158.1C141.6 93.9 126.3 102.8 118.2 117.1L1.9 320.5C0.7 322.7 0 325.2 0 327.8 0 375.8 25 418 62.6 442.2V876.8H46C37.9 876.8 31.3 883.3 31.3 891.4 31.3 899.5 37.9 906.1 46 906.1H954C962.1 906.1 968.7 899.5 968.7 891.4 968.7 883.3 962.1 876.8 954 876.8ZM30.3 342.4H77.3C85.4 342.4 91.9 335.9 91.9 327.8 91.9 319.7 85.4 313.1 77.3 313.1H39.9L143.6 131.6C146.6 126.5 152.1 123.2 158.1 123.2H841.9C847.9 123.2 853.4 126.5 856.4 131.6L960.1 313.1H922.7C914.6 313.1 908.1 319.7 908.1 327.8 908.1 335.9 914.6 342.4 922.7 342.4H969.7C962.5 394.3 917.9 434.5 864 434.5 810.2 434.5 765.5 394.3 758.4 342.4H860.1C868.2 342.4 874.8 335.9 874.8 327.8 874.8 319.7 868.2 313.1 860.1 313.1H139.9C131.8 313.1 125.3 319.7 125.3 327.8 125.3 335.9 131.8 342.4 139.9 342.4H241.6C234.5 394.3 189.8 434.5 136 434.5 82.1 434.5 37.5 394.3 30.3 342.4ZM727 342.4C719.8 394.3 675.2 434.5 621.3 434.5 567.5 434.5 522.8 394.3 515.7 342.4H727ZM484.3 342.4C477.2 394.3 432.5 434.5 378.7 434.5 324.8 434.5 280.2 394.3 273 342.4H484.3ZM829.8 876.8H671.2V827.8H829.8V876.8ZM829.8 798.5H671.2V530.3H829.8V798.5ZM908.1 876.8H859.1V515.7C859.1 507.6 852.5 501 844.4 501H656.6C648.5 501 641.9 507.6 641.9 515.7V876.8H91.9V456.4C105.8 461.1 120.6 463.8 136 463.8 188.9 463.8 234.9 433.4 257.3 389.1 279.8 433.4 325.7 463.8 378.7 463.8 431.6 463.8 477.5 433.4 500 389.1 522.5 433.4 568.4 463.8 621.3 463.8 674.3 463.8 720.2 433.4 742.7 389.1 765.1 433.4 811.1 463.8 864 463.8 879.4 463.8 894.2 461.1 908.1 456.4V876.8ZM578.3 501H155.6C147.5 501 140.9 507.6 140.9 515.7V813.1C140.9 821.2 147.5 827.8 155.6 827.8H578.3C586.4 827.8 592.9 821.2 592.9 813.1V515.7C592.9 507.6 586.4 501 578.3 501ZM563.6 798.5H170.2V530.3H563.6V798.5Z",
        "width": 1000
      },
      "search": [
        "merchant"
      ]
    },
    {
      "uid": "92f298127b8569b6850ebcedab737f66",
      "css": "member",
      "code": 59397,
      "src": "custom_icons",
      "selected": true,
      "svg": {
        "path": "M882.3 463.4C848.2 446.4 784.4 446.2 781.7 446.2 773.7 446.2 767.1 452.7 767.1 460.8 767.1 468.9 773.7 475.5 781.7 475.5 798.2 475.5 846 478 869.2 489.6 871.3 490.7 873.5 491.2 875.7 491.2 881.1 491.2 886.3 488.2 888.8 483.1 892.4 475.8 889.5 467 882.3 463.4ZM955.3 672L894.8 654.7C892.2 653.9 890.4 651.5 890.4 648.8V628.6C895.3 625.2 900 621.4 904.4 617.1 925.6 596.5 937.4 568.8 937.4 539.2V511.3L943.2 499.6C949.6 486.7 953 472.4 953 458V382.5C953 374.4 946.5 367.9 938.4 367.9H797.4C746.1 367.9 704.4 409.6 704.4 460.8V461.7C704.4 473.6 707.3 485.6 712.6 496.3L720.1 511.3V535.2C720.1 573.1 738.8 607.1 767.1 627.6L767.1 648.8C767.1 652 767.1 653.4 755 656.9L725.5 665.3 640.1 634.2C640.4 630.2 639 626.1 636.1 623L608.8 594.4V546.2C611.7 543.9 614.5 541.4 617.3 538.8 651.7 506.6 671.5 461 671.5 413.8V375.4C681.9 352.8 687.1 328.9 687.1 304.2V147.6C687.1 139.5 680.6 132.9 672.5 132.9H453.2C376 132.9 313.3 195.7 313.3 272.9V304.2C313.3 328.9 318.5 352.8 328.9 375.4V408.5C328.9 463.2 353.3 512.6 391.6 545.1V594.4L364.3 623C361.3 626.1 360 630.2 360.3 634.2L270.2 667C263.6 669.4 257.6 672.6 252 676.5L237.9 669.4C280 651.1 293.4 625.3 294 624 296.1 619.9 296.1 615 294 610.9 283.4 589.8 282.2 551.1 281.1 520 280.8 509.6 280.5 499.8 279.9 491.1 274.9 420.9 221.4 367.9 155.6 367.9S36.4 420.9 31.4 491.1C30.7 499.8 30.4 509.6 30.1 520 29 551.1 27.8 589.8 17.2 610.9 15.1 615 15.1 619.9 17.2 624 17.8 625.3 31.2 651 73.4 669.4L34.1 689C13.1 699.6 0 720.7 0 744.2V852.4C0 860.5 6.6 867 14.6 867S29.3 860.5 29.3 852.4V744.2C29.3 731.9 36.1 720.8 47.2 715.3L96.1 690.8 113.2 707C125.1 718.3 140.3 723.9 155.6 723.9 170.9 723.9 186.2 718.3 198.1 707L215.1 690.8 231.1 698.8C223.5 710.8 219.3 724.9 219.3 739.7V852.4C219.3 860.5 225.8 867.1 233.9 867.1 242 867.1 248.6 860.5 248.6 852.4V739.7C248.6 719.6 261.3 701.4 280.2 694.5L375.2 660 414.7 719.3C419.8 726.9 427.9 731.8 437 732.7 438 732.8 439 732.8 440 732.8 448 732.8 455.7 729.7 461.4 724L485.5 699.8V852.4C485.5 860.5 492.1 867.1 500.2 867.1 508.3 867.1 514.8 860.5 514.8 852.4V699.8L539 724C544.7 729.7 552.4 732.8 560.4 732.8 561.4 732.8 562.4 732.8 563.4 732.7 572.5 731.8 580.6 726.9 585.6 719.3L625.2 660 720.2 694.6C739.1 701.4 751.8 719.6 751.8 739.7V852.4C751.8 860.5 758.4 867.1 766.4 867.1 774.5 867.1 781.1 860.5 781.1 852.4V739.7C781.1 719.3 773 700.2 759.4 686.1L763 685C766.7 684 771.7 682.6 776.7 680.1L814.1 717.5V852.4C814.1 860.5 820.6 867.1 828.7 867.1 836.8 867.1 843.4 860.5 843.4 852.4V717.5L880.5 680.4C882.5 681.4 884.6 682.2 886.7 682.8L947.2 700.1C961.1 704.1 970.7 716.9 970.7 731.2V852.4C970.7 860.5 977.3 867.1 985.4 867.1 993.4 867.1 1000 860.5 1000 852.4V731.2C1000 703.8 981.6 679.5 955.3 672ZM94 646.1C66.6 636.2 52.8 623.1 47 615.9 51 605.4 53.6 593.5 55.3 580.8 63.4 600.2 76.9 616.7 94 628.5V646.1ZM177.9 685.7C165.4 697.6 145.8 697.6 133.3 685.7L119.7 672.8C122 668.5 123.3 663.6 123.3 658.5V642.9C133.5 646.1 144.4 647.8 155.6 647.8 166.9 647.8 177.7 646 188 642.9L187.9 658.5C187.9 663.6 189.2 668.5 191.5 672.8L177.9 685.7ZM155.6 618.5C111.9 618.5 76.3 582.9 76.3 539.2 76.3 531.1 69.7 524.5 61.6 524.5 60.8 524.5 60 524.6 59.2 524.7 59.3 523.5 59.3 522.2 59.4 521 59.7 510.9 60 501.4 60.6 493.2 62.5 466.9 73 442.6 90.2 424.9 107.6 407 130.8 397.2 155.6 397.2S203.6 407 221 424.9C238.3 442.6 248.8 466.9 250.6 493.2 251.2 501.4 251.5 510.9 251.9 520.9 251.9 521.8 251.9 522.7 252 523.6 236 499 211.4 480.9 179.6 470.7 150.2 461.3 125 461.8 123.9 461.9 120 462 116.4 463.6 113.7 466.3L87.3 493.7C81.7 499.6 81.9 508.8 87.7 514.5S102.8 519.9 108.4 514.1L130.4 491.3C149.3 492.2 210.3 499.3 234 551.5 228 589.9 195 618.5 155.6 618.5ZM217.2 646.1L217.2 628.7C234.3 616.9 247.8 600.4 255.9 580.9 257.7 593.5 260.3 605.5 264.3 615.9 258.4 623 244.6 636.3 217.2 646.1ZM358.2 408.5V372.1C358.2 369.9 357.7 367.8 356.8 365.8 347.3 346.3 342.5 325.5 342.5 304.2V272.9C342.5 211.9 392.2 162.2 453.2 162.2H657.8V304.2C657.8 325.5 653 346.3 643.6 365.8 642.7 367.8 642.2 369.9 642.2 372.1V413.9C642.2 453.5 626.2 490.3 597.3 517.5 593.6 520.8 589.9 524 586 527 585.9 527 585.8 527.1 585.8 527.2 558.6 547.8 525.4 557.8 490.7 555.5 416.4 550.7 358.2 486.1 358.2 408.5ZM440.7 703.2C440.6 703.3 440.3 703.6 439.9 703.5 439.4 703.5 439.2 703.2 439.1 703.1L393.6 634.7 408.2 619.3 477.3 666.6 440.7 703.2ZM500.2 646.7L420.9 592.5V565.1C441.4 576.2 464.4 583.2 488.8 584.8 492.7 585 496.5 585.1 500.3 585.1 528.3 585.1 555.3 578.4 579.5 565.7V592.5L500.2 646.7ZM561.2 703.1C561.2 703.2 561 703.5 560.5 703.5 560 703.6 559.8 703.3 559.7 703.2L523 666.6 592.1 619.3 606.8 634.7 561.2 703.1ZM828.7 690.7L795.5 657.5C796.1 654.8 796.4 652 796.4 648.8L796.4 642.6C805.6 645.6 815.3 647.4 825.4 647.7 826.5 647.8 827.6 647.8 828.8 647.8 839.9 647.8 850.7 646.1 861.1 642.9V648.8C861.1 651.7 861.4 654.6 862.1 657.3L828.7 690.7ZM884 596.1C868.4 611.2 847.9 619.1 826.3 618.4 783.9 617.2 749.4 579.8 749.4 535.2V507.8C749.4 505.6 748.9 503.3 747.9 501.3L738.8 483.2C735.5 476.5 733.7 469.1 733.7 461.7V460.8C733.7 425.7 762.3 397.2 797.4 397.2H923.7V458C923.7 467.8 921.4 477.7 917 486.5L909.6 501.3C908.6 503.3 908.1 505.6 908.1 507.8V539.2C908.1 560.8 899.5 581 884 596.1ZM922.7 743.8C914.6 743.8 908.1 750.3 908.1 758.4V852.4C908.1 860.5 914.6 867 922.7 867 930.8 867 937.3 860.5 937.3 852.4V758.4C937.3 750.3 930.8 743.8 922.7 743.8ZM77.3 763.1C69.2 763.1 62.7 769.7 62.7 777.8V852.4C62.7 860.5 69.2 867 77.3 867 85.4 867 91.9 860.5 91.9 852.4V777.8C91.9 769.7 85.4 763.1 77.3 763.1ZM620.2 309.5C564.8 254.1 448.9 264.7 401.6 271.8 386.7 274.1 375.9 286.7 375.9 301.8V335.5C375.9 343.6 382.5 350.2 390.5 350.2 398.6 350.2 405.2 343.6 405.2 335.5V301.8C405.2 301.3 405.5 300.9 406 300.8 424.8 298 462.3 293.6 501.1 296.2 546.8 299.2 579.9 310.7 599.5 330.2 605.2 336 614.5 336 620.2 330.2 625.9 324.5 625.9 315.2 620.2 309.5ZM327.9 775.1C319.8 775.1 313.3 781.7 313.3 789.8V852.4C313.3 860.5 319.8 867.1 327.9 867.1 336 867.1 342.5 860.5 342.5 852.4V789.8C342.5 781.7 336 775.1 327.9 775.1ZM672.5 775.1C664.4 775.1 657.8 781.7 657.8 789.8V852.4C657.8 860.5 664.4 867.1 672.5 867.1 680.6 867.1 687.1 860.5 687.1 852.4V789.8C687.1 781.7 680.6 775.1 672.5 775.1Z",
        "width": 1000
      },
      "search": [
        "member"
      ]
    },
    {
      "uid": "bc690179d276f675614ccd84e297aa41",
      "css": "media",
      "code": 59398,
      "src": "custom_icons",
      "selected": true,
      "svg": {
        "path": "M785.2 324.2A19.5 19.5 0 1 0 804.7 343.7 19.5 19.5 0 0 0 785.2 324.2ZM941.4 246.1H726.9L665 122.2A58.3 58.3 0 0 0 612.6 89.8H387.4A58.3 58.3 0 0 0 335 122.2L273.1 246.1H234.4V226.6A58.7 58.7 0 0 0 175.8 168H136.7A58.7 58.7 0 0 0 78.1 226.5V246.1H58.6A58.7 58.7 0 0 0 0 304.7V851.6A58.7 58.7 0 0 0 58.6 910.2H941.4A58.7 58.7 0 0 0 1000 851.6V304.7A58.7 58.7 0 0 0 941.4 246.1ZM370 139.7A19.4 19.4 0 0 1 387.4 128.9H612.6A19.4 19.4 0 0 1 630 139.7L683.3 246.1H316.8ZM117.2 226.6A19.6 19.6 0 0 1 136.7 207H175.8A19.6 19.6 0 0 1 195.3 226.6V246.1H117.2ZM39.1 441.2H286A254.3 254.3 0 0 0 286 714.8H39.1ZM500 363.3A214.8 214.8 0 1 1 285.2 578.1 214.8 214.8 0 0 1 500 363.3ZM960.9 851.6A19.6 19.6 0 0 1 941.4 871.1H58.6A19.6 19.6 0 0 1 39.1 851.6V753.9H316.8A253.7 253.7 0 0 0 683.1 753.9H960.9ZM960.9 714.9H714A254 254 0 0 0 714 441.4H960.9ZM960.9 402.4H683.2A253.7 253.7 0 0 0 316.9 402.4H39.1V304.7A19.6 19.6 0 0 1 58.6 285.2H941.4A19.6 19.6 0 0 1 960.9 304.7ZM558.6 168H441.4A19.5 19.5 0 1 0 441.4 207H558.6A19.5 19.5 0 0 0 558.6 168ZM500 402.3A175.8 175.8 0 1 0 675.8 578.1 175.8 175.8 0 0 0 500 402.3ZM500 714.8A136.7 136.7 0 1 1 636.7 578.1 136.7 136.7 0 0 1 500 714.8ZM500 480.5A97.8 97.8 0 0 0 402.3 578.1 19.5 19.5 0 1 0 441.4 578.1 58.7 58.7 0 0 1 500 519.5 19.5 19.5 0 0 0 500 480.5ZM902.3 324.2H863.3A19.5 19.5 0 1 0 863.3 363.3H902.3A19.5 19.5 0 0 0 902.3 324.2Z",
        "width": 1000
      },
      "search": [
        "media"
      ]
    },
    {
      "uid": "8e9604ade2eee41434dc7108b4b50fc8",
      "css": "loyalty",
      "code": 59399,
      "src": "custom_icons",
      "selected": true,
      "svg": {
        "path": "M742.2 838.3H548.1C539.1 838.3 531.9 831 531.9 822.1V597.3C531.9 592.7 533.8 588.4 537.1 585.3L682.7 451.8 739.6 363.9C754.4 340.9 781.2 330 807 334.6V134.1C807 100.7 838.1 71.4 873.5 71.4 908.1 71.4 936.2 99.5 936.2 134.1V477.3C936.2 480.9 935 484.3 932.9 487.2L758.4 715.1V822.1C758.4 831 751.2 838.3 742.2 838.3ZM564.3 805.9H726.1V709.7C726.1 706.1 727.2 702.7 729.4 699.8L903.8 471.8V134.1C903.8 117.4 890.2 103.8 873.5 103.8 855.6 103.8 839.3 118.2 839.3 134.1V350.2C848.9 358.6 855.9 369.7 859.4 382.2 864.4 400.2 861.6 419.7 851.6 435.5L791.3 530.9C790.8 531.8 790.1 532.6 789.4 533.3L684.5 645.8C678.4 652.3 668.2 652.7 661.7 646.6 655.1 640.5 654.8 630.2 660.9 623.7L764.7 512.4 824.2 418.2C829.4 410 830.8 400.3 828.2 390.9 825.6 381.5 819.3 373.9 810.6 369.5 795 361.7 776.2 366.9 766.8 381.5L708.8 471.1C708 472.3 707.1 473.3 706.1 474.3L564.3 604.4V805.9ZM564.3 805.9M386.3 838.3H192.1C183.2 838.3 175.9 831 175.9 822.1V715.1L1.3 487.2C-0.9 484.4-2 480.9-2 477.3V134.1C-2 103.8 16 81.8 48.7 72.1 50.2 71.7 51.8 71.4 53.3 71.4 120.2 71.4 127.4 115.2 127.4 134.1V333.7C150.8 332.3 173.9 343.2 187.3 363.9L244.1 451.7 396.9 585.1C400.4 588.1 402.5 592.6 402.5 597.3V822.1C402.5 831 395.2 838.3 386.3 838.3ZM208.3 805.9H370.1V604.6L221.1 474.5C219.9 473.5 218.9 472.4 218.1 471.1L160.1 381.5C150.7 366.9 131.8 361.7 116.2 369.5 107.5 373.9 101.3 381.5 98.6 390.9 96 400.3 97.4 410 102.7 418.2L162.1 512.4 266 623.7C272.1 630.2 271.7 640.5 265.2 646.5 258.7 652.7 248.4 652.3 242.3 645.8L137.4 533.3C136.7 532.6 136.1 531.8 135.6 530.9L75.3 435.5C65.3 419.7 62.4 400.2 67.5 382.2 71.8 366.6 81.7 353.2 95 344.5V134.1C95 118.7 90.2 104.4 55.7 103.8 33.3 111.2 30.3 123.8 30.3 134.1V471.8L205 699.8C207.1 702.6 208.3 706.1 208.3 709.7V805.9ZM208.3 805.9M455.3 426.1C453.2 426.1 451.1 425.6 449.1 424.8 217.5 327.7 193.8 186.3 192 172.6 190.4 164.2 178.8 97.3 214.9 47.5 235.9 18.5 268.3 1.4 311.2-3.4 355.6-8.3 392.4 1.2 420.5 24.9 436.7 38.6 447.8 55.3 455.3 71.4 462.9 55.3 474 38.6 490.2 24.9 518.3 1.2 555.1-8.4 599.5-3.4 642.4 1.4 674.8 18.5 695.8 47.5 731.8 97.3 720.3 164.2 718.6 172.6 716.9 186.3 693.2 327.7 461.6 424.8 459.6 425.6 457.5 426.1 455.3 426.1ZM333.1 27.7C327.2 27.7 321.1 28 314.7 28.7 281.3 32.5 256.5 45.2 241.1 66.4 211.7 107 223.7 166.1 223.9 166.7 224 167.3 224.1 167.8 224.1 168.4 224.2 169.6 241.9 300.4 455.3 392.3 668.8 300.4 686.4 169.6 686.6 168.3 686.9 166.2 698.8 106.6 669.5 66.3 654.1 45.1 629.3 32.5 596 28.7 560.6 24.8 532.1 31.8 511.1 49.6 474.9 80.3 471.5 132.9 471.5 133.5 471 142.1 463.9 148.8 455.3 148.8 446.7 148.8 439.7 142.1 439.2 133.5 439.1 133 435.5 79.9 399.4 49.5 382.2 35 359.9 27.7 333.1 27.7ZM333.1 27.7M629 151.1C620 151.1 612.8 143.8 612.8 134.9 612.8 112.6 594.6 94.5 572.3 94.5 563.4 94.5 556.2 87.2 556.2 78.3 556.2 69.3 563.4 62.1 572.3 62.1 612.5 62.1 645.2 94.8 645.2 134.9 645.2 143.8 637.9 151.1 629 151.1ZM629 151.1",
        "width": 1000
      },
      "search": [
        "loyalty"
      ]
    },
    {
      "uid": "76e83a96bc01388facff020b88793d6a",
      "css": "e-voucher",
      "code": 59400,
      "src": "custom_icons",
      "selected": true,
      "svg": {
        "path": "M0 216.7V783.3H1000V216.7H0ZM966.7 750H33.3V250H966.7V750ZM516.7 350V338.3C516.7 308 492.1 283.3 461.8 283.2 450.8 283.2 440.2 286.5 431.1 292.5L345 350H338.3L252.2 292.6C226.9 275.7 192.8 282.5 175.9 307.8 169.9 316.8 166.7 327.5 166.7 338.3V350H100V450H133.3V716.7H533.3V450H566.7V350H516.7ZM200 338.3C200 326.4 209.6 316.6 221.6 316.6 225.9 316.6 230.2 317.9 233.8 320.3L278.3 350H200V338.3ZM316.7 683.3H166.7V450H316.7V683.3ZM316.7 416.7H133.3V383.3H316.7V416.7ZM449.6 320.3C459.5 313.6 473 316.3 479.6 326.2 482.1 329.8 483.3 334 483.3 338.3V350H405L449.6 320.3ZM500 683.3H350V450H500V683.3ZM533.3 416.7H350V383.3H533.3V416.7ZM833.3 416.7H800C781.6 416.7 766.7 401.7 766.7 383.3S781.6 350 800 350H833.3C851.7 350 866.7 364.9 866.7 383.3H900C900 346.5 870.2 316.7 833.3 316.7V283.3H800V316.7C763.2 316.7 733.3 346.5 733.3 383.3S763.2 450 800 450H833.3C851.7 450 866.7 464.9 866.7 483.3S851.7 516.7 833.3 516.7H800C781.6 516.7 766.7 501.7 766.7 483.3H733.3C733.3 520.2 763.2 550 800 550V583.3H833.3V550C870.2 550 900 520.2 900 483.3S870.2 416.7 833.3 416.7Z",
        "width": 1000
      },
      "search": [
        "e-voucher"
      ]
    },
    {
      "uid": "23008c43215adf582e82feb9b4db5722",
      "css": "email-history",
      "code": 59401,
      "src": "custom_icons",
      "selected": true,
      "svg": {
        "path": "M987.7 974.4V358.7C987.7 352.4 979.8 344.4 972 338.5L811 221.7V92.6A21.4 21.4 0 0 0 789.7 71.3H606.3L512.8 3.2A23.1 23.1 0 0 0 489.3 3.2L395.8 71.3H212.3A21.4 21.4 0 0 0 191 92.6V220.2L28 338.7C18.4 344.6 12.2 352.4 12.2 358.9V978.7A21.4 21.4 0 0 0 31.9 1000H966.3C980 999.8 987.7 989.2 987.7 974.4ZM947.2 397V936.2L595.2 654.3ZM931.5 359.6L811 447.3V271L931.5 359.5ZM500.1 43.5L537.5 71.1H462.5ZM768.5 113.9V478.4L500.1 673.9 231.7 478.4V113.9H768.5ZM53 397L405 654.3 53 937.8ZM191.2 448.9L67.7 358.9 191.2 269.1ZM91.2 959.3L439.2 679.3 487.3 714.4A18.3 18.3 0 0 0 512.8 714.4L560.9 679.3 910.9 959.3H91.2Z",
        "width": 1000
      },
      "search": [
        "email-history"
      ]
    },
    {
      "uid": "f7bde11a307dac9d06d4d381ee3119f8",
      "css": "courier-service",
      "code": 59402,
      "src": "custom_icons",
      "selected": true,
      "svg": {
        "path": "M733.3 483.3H566.7V467.5A150.1 150.1 0 0 0 650 333.3V283.3H666.7A50.2 50.2 0 0 0 716.7 233.3V216.7A50 50 0 0 0 713.7 200H766.7V166.7H683.3V83.3A83.3 83.3 0 0 0 600 0H400A83.3 83.3 0 0 0 316.7 83.3V169.7A50.2 50.2 0 0 0 283.3 216.7V233.3A50.2 50.2 0 0 0 333.3 283.3H350V333.3A150.1 150.1 0 0 0 433.3 467.5V483.3H266.7A116.8 116.8 0 0 0 150 600V650A16.7 16.7 0 0 0 166.7 666.7H183.3V883.3A66.7 66.7 0 0 0 250 950 33.4 33.4 0 0 0 283.3 983.3H333.3A16.7 16.7 0 0 0 350 1000H650A16.7 16.7 0 0 0 666.7 983.3H716.7A33.4 33.4 0 0 0 750 950 66.7 66.7 0 0 0 816.7 883.3V666.7H833.3A16.7 16.7 0 0 0 850 650V600A116.8 116.8 0 0 0 733.3 483.3ZM666.7 200A16.7 16.7 0 0 1 683.3 216.7V233.3A16.7 16.7 0 0 1 666.7 250H650V200ZM350 250H333.3A16.7 16.7 0 0 1 316.7 233.3V216.7A16.7 16.7 0 0 1 333.3 200H350ZM350 83.3A50.2 50.2 0 0 1 400 33.3H600A50.2 50.2 0 0 1 650 83.3V166.7H350ZM383.3 333.3V200H616.7V333.3A116.7 116.7 0 1 1 383.3 333.3ZM566.7 516.7V579.7L534.8 573.3A66.7 66.7 0 0 0 566.7 516.7ZM533.3 479.5V516.7A33.3 33.3 0 0 1 466.7 516.7V479.5A146.8 146.8 0 0 0 533.3 479.5ZM433.3 516.7A66.7 66.7 0 0 0 465.2 573.3L433.3 579.7ZM333.3 950H283.3V833.3H333.3ZM633.3 966.7H366.7V750H450V783.3A16.6 16.6 0 0 0 470.7 799.5L537.3 782.8A16.7 16.7 0 0 0 550 766.7V750H633.3ZM366.7 716.7V700H450V716.7ZM483.3 762V700H516.7V753.7ZM633.3 716.7H550V700H633.3ZM716.7 950H666.7V833.3H716.7ZM816.7 633.3H700V616.7H666.7V650A16.7 16.7 0 0 0 683.3 666.7H783.3V883.3A33.4 33.4 0 0 1 750 916.7V833.3A33.4 33.4 0 0 0 716.7 800H666.7V683.3A16.7 16.7 0 0 0 650 666.7H350A16.7 16.7 0 0 0 333.3 683.3V800H283.3A33.4 33.4 0 0 0 250 833.3V916.7A33.4 33.4 0 0 1 216.7 883.3V666.7H316.7A16.7 16.7 0 0 0 333.3 650V616.7H300V633.3H183.3V600A83.3 83.3 0 0 1 266.7 516.7H400V600A16.9 16.9 0 0 0 416.7 616.7 22.6 22.6 0 0 0 420 616.3L500 600.3 580 616.3A22.6 22.6 0 0 0 583.3 616.7 16.9 16.9 0 0 0 600 600V516.7H733.3A83.3 83.3 0 0 1 816.7 600Z",
        "width": 1000
      },
      "search": [
        "courier-service"
      ]
    },
    {
      "uid": "8f14a4f6d3dc787c1fa386e93c7af079",
      "css": "banner",
      "code": 59404,
      "src": "custom_icons",
      "selected": true,
      "svg": {
        "path": "M950 83.3H50A49.1 49.1 0 0 0 0 133.3V866.7A49.1 49.1 0 0 0 50 916.7H950A49.1 49.1 0 0 0 1000 866.7V133.3A49.1 49.1 0 0 0 950 83.3ZM50 116.7H950A15.7 15.7 0 0 1 966.7 133.3V216.7H33.3V133.3A15.7 15.7 0 0 1 50 116.7ZM950 883.3H50A15.7 15.7 0 0 1 33.3 866.7V250H966.7V866.7A15.7 15.7 0 0 1 950 883.3ZM950 883.3M66.7 150H100V183.3H66.7ZM66.7 150M133.3 150H166.7V183.3H133.3ZM133.3 150M200 150H233.3V183.3H200ZM200 150M283.3 150H933.3V183.3H283.3ZM283.3 150M700 850H933.3V283.3H700ZM733.3 316.7H900V816.7H733.3ZM733.3 316.7M766.7 783.3H866.7V700H766.7ZM800 733.3H833.3V750H800ZM800 733.3M66.7 850H666.7V583.3H66.7ZM100 616.7H633.3V816.7H100ZM100 616.7M366.7 766.7H600V666.7H366.7ZM400 700H566.7V733.3H400ZM400 700M133.3 666.7H333.3V700H133.3ZM133.3 666.7M133.3 733.3H333.3V766.7H133.3ZM133.3 733.3M766.7 400H866.7V433.3H766.7ZM766.7 400M766.7 466.7H866.7V500H766.7ZM766.7 466.7M83.3 283.3H183.3V316.7H83.3ZM83.3 283.3M83.3 350H216.7V383.3H83.3ZM83.3 350M250 350H666.7V383.3H250ZM250 350M83.3 416.7H433.3V450H83.3ZM83.3 416.7M466.7 416.7H666.7V450H466.7ZM466.7 416.7M83.3 483.3H266.7V516.7H83.3ZM83.3 483.3M300 483.3H500V516.7H300ZM300 483.3M533.3 483.3H666.7V516.7H533.3ZM533.3 483.3",
        "width": 1000
      },
      "search": [
        "banner"
      ]
    },
    {
      "uid": "00e726fa09e2db8c4dfe843bff6135d6",
      "css": "articles",
      "code": 59405,
      "src": "custom_icons",
      "selected": true,
      "svg": {
        "path": "M696.6 118.1H557.2A138 138 0 0 0 420.8 0H395.4A138 138 0 0 0 259 118.1H119.6A59.3 59.3 0 0 0 60.4 177.3V940.8A59.3 59.3 0 0 0 119.6 1000H696.6A59.3 59.3 0 0 0 755.7 940.8V177.3A59.3 59.3 0 0 0 696.6 118.1ZM395.4 39.5H420.8A98.5 98.5 0 0 1 517.2 118.1H299A98.5 98.5 0 0 1 395.4 39.5ZM696.6 157.6A19.8 19.8 0 0 1 716.3 177.3V940.8A19.8 19.8 0 0 1 696.6 960.6H119.6A19.8 19.8 0 0 1 99.9 940.8V177.3A19.8 19.8 0 0 1 119.6 157.6ZM626.5 209.5H189.7A19.7 19.7 0 0 0 170 229.2V405.9A19.7 19.7 0 0 0 189.7 425.6H626.5A19.7 19.7 0 0 0 646.2 405.9V229.2A19.7 19.7 0 0 0 626.5 209.5ZM606.7 386.2H209.5V248.9H606.7ZM195.6 522.1H408.1C433.4 522.1 433.4 482.6 408.1 482.6H195.6C170.3 482.6 170.2 522.1 195.6 522.1ZM626.5 862.7H511.6C486.3 862.7 486.3 902.2 511.6 902.2H626.5C651.7 902.2 651.8 862.7 626.5 862.7ZM626.5 577.7H195.6C170.3 577.7 170.3 617.2 195.6 617.2H626.5C651.7 617.1 651.8 577.7 626.5 577.7ZM626.5 672.7H195.6C170.3 672.7 170.3 712.1 195.6 712.1H626.5C651.7 712.1 651.8 672.7 626.5 672.7ZM626.5 767.7H195.6C170.3 767.7 170.3 807.2 195.6 807.2H626.5C651.7 807.2 651.8 767.7 626.5 767.7ZM939.6 372.9A73.1 73.1 0 1 0 793.3 372.9V509.8C793.3 535.1 832.8 535.2 832.8 509.8V477.2H900.1V835.8H832.8V669.5C832.8 644.2 793.3 644.1 793.3 669.5V855.6C793.3 858.3 794.9 860.9 794.9 863.4L848.3 987.9A20 20 0 0 0 884.5 987.9L937.9 863.4C937.9 860.9 939.5 858.3 939.5 855.6ZM832.8 437.7V372.9A33.7 33.7 0 1 1 900.1 372.9V437.7ZM866.4 930L842.9 875.3H889.9ZM794.8 597A19.7 19.7 0 1 0 801.7 573.3 19.7 19.7 0 0 0 794.8 597ZM450.5 874.9A19.7 19.7 0 1 0 439.8 900.7 19.7 19.7 0 0 0 450.5 874.9Z",
        "width": 1000
      },
      "search": [
        "articles"
      ]
    },
    {
      "uid": "da41e0756e12e99992f2c4c52f148629",
      "css": "versioning",
      "code": 59406,
      "src": "custom_icons",
      "selected": true,
      "svg": {
        "path": "M833.3 458.8V50A50 50 0 0 0 783.3 0H50A50 50 0 0 0 0 50V783.3A50 50 0 0 0 50 833.3H458.8A283.1 283.1 0 1 0 833.3 458.8ZM50 33.3H783.3A16.7 16.7 0 0 1 800 50V133.3H33.3V50A16.7 16.7 0 0 1 50 33.3ZM50 800A16.7 16.7 0 0 1 33.3 783.3V166.7H800V445.9A283.3 283.3 0 0 0 445.9 800ZM716.7 966.7A250 250 0 1 1 966.7 716.7 250 250 0 0 1 716.7 966.7ZM66.7 66.7H100V100H66.7ZM133.3 66.7H166.7V100H133.3ZM200 66.7H233.3V100H200ZM733.3 66.7H766.7V100H733.3ZM857.4 601.7L724.1 535A16.7 16.7 0 0 0 709.2 535L575.9 601.7A16.7 16.7 0 0 0 566.7 616.7V689.1A215.5 215.5 0 0 0 668.5 872.9L707.8 897.4A16.7 16.7 0 0 0 725.5 897.4L764.8 872.9A215.5 215.5 0 0 0 866.7 689.1V616.7A16.7 16.7 0 0 0 857.4 601.7ZM833.3 689.1A182.3 182.3 0 0 1 747.2 844.6L716.7 863.7 686.2 844.6A182.3 182.3 0 0 1 600 689.1V627L716.7 568.6 833.3 627ZM667.2 692.2L643.7 715.4 690.6 761.8A16.7 16.7 0 0 0 714.1 761.8L798.2 678.6 774.7 655.4 702.4 727Z",
        "width": 1000
      },
      "search": [
        "versioning"
      ]
    },
    {
      "uid": "b758c92c3b5681b3596e550cbc81affb",
      "css": "package-bundle",
      "code": 59407,
      "src": "custom_icons",
      "selected": true,
      "svg": {
        "path": "M960.4 220.6L506.4 1.5A14.7 14.7 0 0 0 493.6 1.5L39.6 220.6A14.6 14.6 0 0 0 31.3 233.8V766.2A14.6 14.6 0 0 0 39.6 779.4L493.6 998.5A14.6 14.6 0 0 0 506.4 998.5L960.4 779.4A14.6 14.6 0 0 0 968.7 766.2V233.8A14.6 14.6 0 0 0 960.4 220.6ZM500 30.9L920.3 233.8 798.5 292.7A14.5 14.5 0 0 0 796 291.1L378.5 89.6ZM345.4 106.1L765.2 308.8 679.2 350.3 259.6 147.7ZM775 336.5V489.9L694.7 528.7V375.3ZM939.4 757L514.6 962V462.2L616 413.3A14.6 14.6 0 0 0 603.2 386.9L500 436.8 459.4 417.2A14.6 14.6 0 1 0 446.6 443.5L485.4 462.3V962L60.6 757V257.2L384 413.3A14.6 14.6 0 1 0 396.8 386.9L79.7 233.8 225.2 163.6 665.2 376C665.2 376.1 665.3 376.2 665.4 376.3V552A14.6 14.6 0 0 0 686.4 565.2L796 512.3A14.6 14.6 0 0 0 804.3 499.1V322.4L939.4 257.2V757ZM181.5 700.2L114.9 668A14.6 14.6 0 1 0 102.1 694.4L168.8 726.5A14.6 14.6 0 1 0 181.5 700.2ZM242.8 660.2L115 598.5A14.6 14.6 0 1 0 102.2 624.9L230.1 686.6A14.6 14.6 0 1 0 242.8 660.2Z",
        "width": 1000
      },
      "search": [
        "package-bundle"
      ]
    },
    {
      "uid": "e50755b59092dd75825227ecba8423da",
      "css": "payment-gateway",
      "code": 59408,
      "src": "custom_icons",
      "selected": true,
      "svg": {
        "path": "M916.7 0H83.3A83.4 83.4 0 0 0 0 83.3V683.3A83.4 83.4 0 0 0 83.3 766.7H377.6L337.6 900H266.7A16.7 16.7 0 0 0 250 916.7 83.4 83.4 0 0 0 333.3 1000H666.7A83.4 83.4 0 0 0 750 916.7 16.7 16.7 0 0 0 733.3 900H662.4L622.4 766.7H916.7A83.4 83.4 0 0 0 1000 683.3V83.3A83.4 83.4 0 0 0 916.7 0ZM83.3 33.3H916.7A50.1 50.1 0 0 1 966.7 83.3V600H33.3V400H283.3V416.7A50.1 50.1 0 0 0 333.3 466.7H651.3A116.6 116.6 0 1 0 783.3 334.7V183.3A50.1 50.1 0 0 0 733.3 133.3H437.3L307.4 68.4A16.6 16.6 0 0 0 295.4 67.3L181 100H33.3V83.3A50.1 50.1 0 0 1 83.3 33.3ZM651.3 433.3H333.3A16.7 16.7 0 0 1 316.7 416.7V400H375A58.4 58.4 0 0 0 433.3 341.7 57.7 57.7 0 0 0 427.5 316.7H750V334.7A116.7 116.7 0 0 0 651.3 433.3ZM316.7 250H750V283.3H316.7ZM766.7 366.7A83.3 83.3 0 1 1 683.3 450 83.3 83.3 0 0 1 766.7 366.7ZM750 216.7H316.7V183.3A16.7 16.7 0 0 1 333.3 166.7H733.3A16.7 16.7 0 0 1 750 183.3ZM333.3 133.3A50.1 50.1 0 0 0 283.3 183.3V283.3H250V316.7H375A25 25 0 1 1 375 366.7H33.3V133.3H183.3A16.2 16.2 0 0 0 187.9 132.7L298.3 101.1 362.7 133.3ZM666.7 966.7H333.3A50.1 50.1 0 0 1 286.2 933.3H713.8A50.1 50.1 0 0 1 666.7 966.7ZM627.6 900H372.4L412.4 766.7H587.6ZM916.7 733.3H83.3A50.1 50.1 0 0 1 33.3 683.3V633.3H966.7V683.3A50.1 50.1 0 0 1 916.7 733.3ZM750 500A16.6 16.6 0 0 0 761.8 495.1L828.5 428.5 804.9 404.9 750 459.7 728.5 438.2 704.9 461.8 738.2 495.1A16.6 16.6 0 0 0 750 500ZM450 350H483.3V383.3H450ZM516.7 350H550V383.3H516.7ZM583.3 350H616.7V383.3H583.3Z",
        "width": 1000
      },
      "search": [
        "payment-gateway"
      ]
    },
    {
      "uid": "f292129d50de7268b9994f9cfd19fec4",
      "css": "points-transactions",
      "code": 59409,
      "src": "custom_icons",
      "selected": true,
      "svg": {
        "path": "M667.9 641.3C644.2 641.3 624.9 624.6 624.9 604.1S644.2 566.9 667.9 566.9 710.8 583.6 710.8 604.1A19.5 19.5 0 0 0 749.9 604.1C749.9 568.3 723.2 538.3 687.4 530.1V519.9A19.5 19.5 0 0 0 648.4 519.9V530.1C612.5 538.3 585.9 568.3 585.9 604.1 585.9 646.2 622.7 680.4 667.9 680.4 691.6 680.4 710.9 697.1 710.9 717.6S691.6 754.8 667.9 754.8 624.9 738.1 624.9 717.6A19.5 19.5 0 1 0 585.8 717.6C585.8 753.4 612.5 783.5 648.3 791.6V800.1A19.5 19.5 0 0 0 687.4 800.1V791.6C723.2 783.4 749.9 753.4 749.9 717.6 749.9 675.5 713.1 641.3 667.9 641.3ZM881.8 525.2A254.5 254.5 0 0 0 777.8 433.2 19.5 19.5 0 1 0 760.9 468.4 215 215 0 0 1 857.8 762.9 19.5 19.5 0 1 0 892.3 781.2 254.4 254.4 0 0 0 921.9 662.1 253.1 253.1 0 0 0 881.8 525.2ZM698.6 408.2H697.3A19.5 19.5 0 1 0 697.3 447.3H698.5A19.5 19.5 0 0 0 698.6 408.2ZM575 855.9A215 215 0 0 1 478.2 561.3 19.5 19.5 0 0 0 443.7 543 254 254 0 0 0 558.1 891.1 19.5 19.5 0 1 0 575 855.9ZM638.7 876.9H637.5A19.5 19.5 0 0 0 637.4 916H638.7A19.5 19.5 0 0 0 638.7 876.9ZM756.7 342.1A89.7 89.7 0 0 0 748 326.2H798.9A89.8 89.8 0 0 0 798.9 146.5H642.4A89.8 89.8 0 0 0 568.4 5.9H89.8A89.8 89.8 0 1 0 89.8 185.5H246.3A89.6 89.6 0 0 0 246.3 287.1H195.3A89.8 89.8 0 0 0 139.5 447.3 89.7 89.7 0 0 0 139.5 587.9 89.7 89.7 0 0 0 139.5 728.5 89.8 89.8 0 0 0 195.3 888.7H425.5A332 332 0 1 0 756.7 342.1ZM798.8 185.5A50.8 50.8 0 1 1 798.8 287.1H320.3A50.8 50.8 0 1 1 320.3 185.5ZM89.8 146.5A50.8 50.8 0 1 1 89.8 44.9H568.4A50.8 50.8 0 1 1 568.4 146.5ZM195.3 326.2H673.8A50.8 50.8 0 0 1 696 331.3Q682.1 330.1 668 330.1A331 331 0 0 0 433 427.7H195.3A50.8 50.8 0 1 1 195.3 326.1ZM195.3 466.8H399.6A331.1 331.1 0 0 0 349.5 568.4H195.3A50.8 50.8 0 1 1 195.3 466.8ZM195.3 607.4H340.5A332.3 332.3 0 0 0 339.3 709H195.3A50.8 50.8 0 1 1 195.3 607.4ZM195.3 849.6A50.8 50.8 0 1 1 195.3 748H347.2A330.7 330.7 0 0 0 394.1 849.6ZM668 955.1A293 293 0 1 1 961 662.1 293 293 0 0 1 668 955.1Z",
        "width": 1000
      },
      "search": [
        "points-transactions"
      ]
    },
    {
      "uid": "04725c398bb178a56d34b8f3279c13d9",
      "css": "product",
      "code": 59410,
      "src": "custom_icons",
      "selected": true,
      "svg": {
        "path": "M350 333.3C350 298.7 336.5 265.5 312.4 240.7 349.3 225.7 391.5 234 420 261.9L443.3 238.1C400.6 196.1 335 187.9 283.3 218.1 242.1 194.2 191.3 194.1 150 217.8 108.7 241.6 83.3 285.7 83.3 333.3V400H16.7C7.5 400 0 407.5 0 416.7V983.3C0 992.5 7.5 1000 16.7 1000H366.7V966.7H166.7V433.3H216.7V500H250V433.3H366.7V400H350ZM97.2 874.1C93.9 869.7 88.8 867.1 83.3 867.1S72.7 869.7 69.5 874.1L33.3 928.3V471.7L69.5 525.9C72.6 530.5 77.8 533.3 83.3 533.3S94.1 530.5 97.2 525.9L133.3 471.7V928.3ZM118.9 966.7H47.8L83.3 913.3ZM83.3 486.7L47.8 433.3H118.9ZM116.7 400V333.3C116.6 300 133.2 268.9 160.8 250.3 188.4 231.8 223.5 228.2 254.3 240.7 230.2 265.5 216.7 298.7 216.7 333.3V400ZM250 333.3C250 304.9 262.1 277.9 283.3 259 304.5 277.9 316.7 304.9 316.7 333.3V400H250ZM250 333.3M531.7 224.1C532.8 221.8 533.4 219.2 533.3 216.7V100H600V216.7C600 219.2 600.5 221.8 601.7 224.1L701.7 424.1 731.5 409.2 633.3 212.7V16.7C633.3 7.5 625.9 0 616.7 0H516.7C507.5 0 500 7.5 500 16.7V212.7L401.7 409.2C400.6 411.5 400 414.1 400 416.7V983.3C400 992.5 407.5 1000 416.7 1000H533.3V966.7H433.3V420.6ZM600 33.3V66.7H533.3V33.3ZM600 33.3M997.6 641.5L933.3 528.9V466.7C933.3 457.5 925.9 450 916.7 450H650C640.8 450 633.3 457.5 633.3 466.7V528.9L568.9 641.7C567.4 644.2 566.7 647.1 566.7 650V983.3C566.7 992.5 574.1 1000 583.3 1000H983.3C992.5 1000 1000 992.5 1000 983.3V650C1000 647 999.2 644 997.6 641.5ZM954.6 633.3H878.7L916.7 566.9ZM666.7 483.3H900V516.7H666.7ZM659.7 550H888L840.3 633.3H612ZM833.3 966.7H600V666.7H833.3ZM966.7 966.7H866.7V666.7H966.7ZM966.7 966.7",
        "width": 1000
      },
      "search": [
        "product"
      ]
    },
    {
      "uid": "09a6d7b4ea68e5c8530e157c297ca188",
      "css": "promo-code",
      "code": 59411,
      "src": "custom_icons",
      "selected": true,
      "svg": {
        "path": "M50 783.3H950A50.1 50.1 0 0 0 1000 733.3V266.7A50.1 50.1 0 0 0 950 216.7H50A50.1 50.1 0 0 0 0 266.7V733.3A50.1 50.1 0 0 0 50 783.3ZM33.3 733.3V466.7H103.4A52.6 52.6 0 0 0 171 497.4L183.8 492.6 71.5 604.9A16.7 16.7 0 0 0 79.3 632.9L141.5 648.4 188.2 695.1A16.7 16.7 0 0 0 215.3 689.9L233.3 647.9V750H50A16.7 16.7 0 0 1 33.3 733.3ZM102.1 366.7A52.3 52.3 0 0 0 115.4 389L126.4 400 115.4 411A52.3 52.3 0 0 0 102.1 433.3H33.3V366.7ZM161.8 388.2L139 365.4A19.2 19.2 0 0 1 159.3 333.8L233.3 361.5V383.3H200V416.7H233.3V438.5L159.3 466.2A19.2 19.2 0 0 1 139 434.6L161.8 411.8A16.7 16.7 0 0 0 161.8 388.3ZM438.2 411.8L461 434.6A19.2 19.2 0 0 1 440.7 466.2L366.7 438.5V416.7H400V383.3H366.7V361.5L440.7 333.8A19.2 19.2 0 0 1 461 365.4L438.2 388.2A16.7 16.7 0 0 0 438.2 411.7ZM333.3 433.3H266.7V366.7H333.3ZM274.7 466.7L194.4 654.1 161.8 621.5A16.7 16.7 0 0 0 154 617.2L115.9 607.6 256.9 466.7ZM266.7 570.1L300 492.3 333.3 570.1V750H266.7ZM325.3 466.7H343.1L484.1 607.6 446 617.2A16.7 16.7 0 0 0 438.2 621.5L405.6 654.1ZM333.3 333.3H266.7V250H333.3ZM966.7 266.7V333.3H683.3V366.7H966.7V433.3H683.3V466.7H966.7V733.3A16.7 16.7 0 0 1 950 750H650V716.7H616.7V750H366.7V647.9L384.7 689.9A16.7 16.7 0 0 0 411.8 695.1L458.5 648.4 520.7 632.8A16.7 16.7 0 0 0 528.5 604.9L416.2 492.6 429 497.4A52.5 52.5 0 0 0 496.6 466.7H583.3V433.3H497.9A52.3 52.3 0 0 0 484.6 411L473.6 400 484.6 389A52.3 52.3 0 0 0 497.9 366.7H583.3V333.3H496.6A52.5 52.5 0 0 0 429 302.6L366.7 326V250H616.7V283.3H650V250H950A16.7 16.7 0 0 1 966.7 266.7ZM50 250H233.3V326L171 302.6A52.5 52.5 0 0 0 103.4 333.3H33.3V266.7A16.7 16.7 0 0 1 50 250ZM616.7 316.7H650V383.3H616.7ZM616.7 416.7H650V483.3H616.7ZM616.7 516.7H650V583.3H616.7ZM616.7 616.7H650V683.3H616.7ZM704.7 688.2L888 504.9 911.6 528.5 728.3 711.8ZM733.3 600A50 50 0 1 0 683.3 550 50 50 0 0 0 733.3 600ZM733.3 533.3A16.7 16.7 0 1 1 716.7 550 16.7 16.7 0 0 1 733.3 533.3ZM833.3 666.7A50 50 0 1 0 883.3 616.7 50 50 0 0 0 833.3 666.7ZM900 666.7A16.7 16.7 0 1 1 883.3 650 16.7 16.7 0 0 1 900 666.7Z",
        "width": 1000
      },
      "search": [
        "promo-code"
      ]
    },
    {
      "uid": "cdbdb9040363f505c73135738485f1d6",
      "css": "promotion",
      "code": 59412,
      "src": "custom_icons",
      "selected": true,
      "svg": {
        "path": "M267.5 628.9A19.5 19.5 0 1 0 240.8 621.7 19.5 19.5 0 0 0 267.5 628.9ZM267.5 628.9M187.5 763.7L285.8 934.1A78.1 78.1 0 1 0 421.1 856L362.6 754.4 413.3 725.1A19.5 19.5 0 0 0 420.5 698.5L395.1 654.5C398.1 653.9 418 650 769.2 581.1A58.6 58.6 0 0 0 816.7 493.3L751.7 380.9 793.2 318.1A19.5 19.5 0 0 0 793.8 297.5L754.8 229.9A19.6 19.6 0 0 0 736.7 220.1L661.5 224.6 589.5 99.8A58.1 58.1 0 0 0 539.5 70.5H538.7A58.1 58.1 0 0 0 489.4 97.6L234.2 422.6 68.4 518.3A136.7 136.7 0 0 0 187.5 763.7ZM387.3 875.5A39.1 39.1 0 1 1 319.7 914.6L222 745.4 289.6 706.4 387.3 875.5ZM343 720.6L323.5 686.8 357.3 667.2 376.8 701.1ZM727 259.9L754 306.6 729.9 343.1 683.4 262.5ZM522 119A19.5 19.5 0 0 1 555.6 119.4L782.8 512.8A19.5 19.5 0 0 1 766.4 542.1 71.7 71.7 0 0 0 755.7 543.9L515.4 127.7C520.4 121.2 521 120.6 522 118.9ZM489.4 160.8L715.1 551.9 374.4 618.7 270.8 439.3ZM52.2 685.6A97.6 97.6 0 0 1 87.9 552.2L240.1 464.3 337.8 633.5 185.6 721.3A97.8 97.8 0 0 1 52.2 685.6ZM52.2 685.6M207 641.3A19.5 19.5 0 0 0 180.3 634.1L146.5 653.7A19.6 19.6 0 0 1 119.8 646.5 19.5 19.5 0 0 0 86 666 58.7 58.7 0 0 0 166 687.5L199.9 668A19.5 19.5 0 0 0 207 641.3ZM207 641.3M971 112.3L862.1 172.9A19.5 19.5 0 0 0 881.1 207L990 146.4A19.5 19.5 0 1 0 971 112.3ZM971 112.3M959.6 314.6L884.1 294.4A19.5 19.5 0 0 0 874 332.1L949.4 352.3A19.5 19.5 0 1 0 959.5 314.6ZM959.6 314.6M769.9 41.4L749.7 116.8A19.5 19.5 0 1 0 787.4 126.9L807.6 51.5A19.5 19.5 0 1 0 769.9 41.4ZM769.9 41.4",
        "width": 1000
      },
      "search": [
        "promotion"
      ]
    },
    {
      "uid": "00ce530a27205293d88ea58a3942b3f0",
      "css": "report",
      "code": 59413,
      "src": "custom_icons",
      "selected": true,
      "svg": {
        "path": "M866.7 66.7C866.7 66.7 866.7 66.7 866.7 66.7H650V16.7C650 7.5 642.5 0 633.3 0 633.3 0 633.3 0 633.3 0H366.7C357.5 0 350 7.5 350 16.7 350 16.7 350 16.7 350 16.7V66.7H133.3C124.1 66.7 116.7 74.1 116.7 83.3 116.7 83.3 116.7 83.3 116.7 83.3V983.3C116.7 992.5 124.1 1000 133.3 1000 133.3 1000 133.3 1000 133.3 1000H866.7C875.9 1000 883.3 992.5 883.3 983.3 883.3 983.3 883.3 983.3 883.3 983.3V83.3C883.3 74.1 875.9 66.7 866.7 66.7ZM383.3 33.3H616.7V133.3H383.3V33.3ZM850 966.7H150V100H350V150C350 159.2 357.5 166.7 366.7 166.7 366.7 166.7 366.7 166.7 366.7 166.7H633.3C642.5 166.7 650 159.2 650 150 650 150 650 150 650 150V100H850V966.7ZM300 483.3C300 483.3 300 483.3 300 483.3H200C190.8 483.3 183.3 490.8 183.3 500 183.3 500 183.3 500 183.3 500V716.7C183.3 725.9 190.8 733.3 200 733.3 200 733.3 200 733.3 200 733.3H300C309.2 733.3 316.7 725.9 316.7 716.7 316.7 716.7 316.7 716.7 316.7 716.7V500C316.7 490.8 309.2 483.3 300 483.3ZM283.3 700H216.7V516.7H283.3V700ZM466.7 416.7C466.7 416.7 466.7 416.7 466.7 416.7H366.7C357.5 416.7 350 424.1 350 433.3 350 433.3 350 433.3 350 433.3V716.7C350 725.9 357.5 733.3 366.7 733.3 366.7 733.3 366.7 733.3 366.7 733.3H466.7C475.9 733.3 483.3 725.9 483.3 716.7 483.3 716.7 483.3 716.7 483.3 716.7V433.3C483.3 424.1 475.9 416.7 466.7 416.7ZM450 700H383.3V450H450V700ZM633.3 350C633.3 350 633.3 350 633.3 350H533.3C524.1 350 516.7 357.5 516.7 366.7 516.7 366.7 516.7 366.7 516.7 366.7V716.7C516.7 725.9 524.1 733.3 533.3 733.3 533.3 733.3 533.3 733.3 533.3 733.3H633.3C642.5 733.3 650 725.9 650 716.7 650 716.7 650 716.7 650 716.7V366.7C650 357.5 642.5 350 633.3 350ZM616.7 700H550V383.3H616.7V700ZM800 283.3C800 283.3 800 283.3 800 283.3H700C690.8 283.3 683.3 290.8 683.3 300 683.3 300 683.3 300 683.3 300V716.7C683.3 725.9 690.8 733.3 700 733.3 700 733.3 700 733.3 700 733.3H800C809.2 733.3 816.7 725.9 816.7 716.7 816.7 716.7 816.7 716.7 816.7 716.7V300C816.7 290.8 809.2 283.3 800 283.3ZM783.3 700H716.7V316.7H783.3V700ZM796.7 167L630.1 200.3C627.9 200.8 625.9 201.6 624.1 202.8L478.3 300H333.3C330.2 300 327.2 300.9 324.5 302.5L191.2 385.9 208.8 414.1 338.1 333.3H483.3C486.6 333.3 489.8 332.4 492.6 330.5L639.8 232.4 803.3 199.7 796.7 167Z",
        "width": 1000
      },
      "search": [
        "report"
      ]
    },
    {
      "uid": "aa5d8319e3064ff4e89f4a077d426f1c",
      "css": "shopping-cart",
      "code": 59415,
      "src": "custom_icons",
      "selected": true,
      "svg": {
        "path": "M62.5 83.3H145.8A62.6 62.6 0 0 1 205.2 126.2C242 131.8 253.2 155 258.7 175.6L278.6 250H979.2A20.8 20.8 0 0 1 999.3 276.2L977 359.5A20.8 20.8 0 0 1 956.8 375H939.3L887.6 567.9C887.6 568.1 887.5 568.2 887.5 568.4 887.4 568.7 887.3 569 887.2 569.3S886.9 570 886.8 570.3 886.6 570.8 886.5 571.1A20.4 20.4 0 0 1 884.6 574.4L884.5 574.5C884.2 575 883.8 575.4 883.5 575.9L883.2 576.2Q882.7 576.7 882.2 577.2L881.8 577.7C881.5 577.9 881.2 578.2 880.8 578.5 880.7 578.6 880.5 578.8 880.3 578.9 880 579.2 879.7 579.4 879.3 579.6A6.3 6.3 0 0 1 878.8 580C878.3 580.3 877.8 580.6 877.2 580.9 877 581 876.8 581.1 876.5 581.2 876.2 581.4 875.9 581.6 875.5 581.7 875.3 581.8 875 581.9 874.8 582 874.4 582.1 874.1 582.3 873.7 582.4L873 582.6C872.5 582.7 872.1 582.8 871.6 582.9L871.2 583A20.5 20.5 0 0 1 869.1 583.3L378.6 622.9 390.3 666.7H834A20.8 20.8 0 1 1 834 708.3H776.3L787.9 751.6A83.3 83.3 0 0 1 771.5 916.6H667.4A20.8 20.8 0 1 1 667.4 875H699.4A83.2 83.2 0 0 1 745.5 754.2L733.2 708.3H475.1L462.8 754.2A83.3 83.3 0 0 1 436.8 916.6H228.5A20.8 20.8 0 1 1 228.5 875H364.7A83.3 83.3 0 0 1 420.4 751.6L432 708.3H374.3C373.6 708.3 372.9 708.3 372.3 708.2L371.8 708.2C371.3 708.1 370.9 708 370.4 707.9L369.7 707.8C369.3 707.7 369 707.6 368.6 707.5 368.3 707.4 368.1 707.4 367.8 707.3S367.1 707 366.8 706.9 366.3 706.7 366 706.6C365.5 706.4 365 706.1 364.5 705.9 364.2 705.7 364 705.6 363.7 705.4S363.1 705.1 362.9 704.9 362.4 704.6 362.2 704.4A9.4 9.4 0 0 1 361.3 703.8C361.1 703.6 360.9 703.5 360.8 703.3 360.5 703 360.2 702.8 359.9 702.5 359.7 702.4 359.6 702.2 359.4 702 359.1 701.7 358.8 701.4 358.5 701L358.2 700.7Q357.6 699.9 357 699.2C357 699 356.9 698.9 356.8 698.8 356.6 698.4 356.3 698 356.1 697.6 355.9 697.4 355.8 697.1 355.7 696.8S355.4 696.2 355.3 696 355 695.3 354.9 695 354.7 694.5 354.6 694.3Q354.4 693.7 354.3 693.2A1.3 1.3 0 0 0 354.2 692.9L332 609.9A0.8 0.8 0 0 0 331.9 609.7L269 375H251.5A20.8 20.8 0 0 1 231.4 359.6L209 276.2A20.8 20.8 0 0 1 229.2 250H235.5L218.5 186.4C216 177.3 214.4 171.1 204.1 168.3A62.6 62.6 0 0 1 145.8 208.3H62.5A62.5 62.5 0 1 1 62.5 83.3ZM729.8 833.3A41.7 41.7 0 0 0 771.4 875H771.5A41.7 41.7 0 0 0 771.5 791.7H771.5A41.7 41.7 0 0 0 729.8 833.3ZM395.1 833.3A41.7 41.7 0 0 0 436.7 875H436.8A41.7 41.7 0 1 0 436.8 791.7H436.7A41.7 41.7 0 0 0 395.1 833.3ZM323.3 416.7H557.3A20.8 20.8 0 1 1 557.3 458.3H334.5L345.6 500H454.6A20.8 20.8 0 1 1 454.6 541.7H356.8L367.6 582 851.2 542.9 896.2 375H312.1ZM267.5 333.3H940.8L952 291.7H256.3ZM62.5 166.7H145.8A20.8 20.8 0 1 0 145.8 125H62.5A20.8 20.8 0 0 0 62.5 166.7ZM638.6 458.3H626.1A20.8 20.8 0 1 1 626.1 416.7H638.5A20.8 20.8 0 1 1 638.5 458.3Z",
        "width": 1000
      },
      "search": [
        "shopping-cart"
      ]
    },
    {
      "uid": "5b130a5905bf7c977fbb9be52e7357ae",
      "css": "order-history-merchant",
      "code": 59416,
      "src": "custom_icons",
      "selected": true,
      "svg": {
        "path": "M935.6 193.6H708.9A209.5 209.5 0 0 0 291.1 193.6H64.4A64.6 64.6 0 0 0 0 258V838.7A64.6 64.6 0 0 0 64.4 903.2H370.9V1000H629V903.2H935.6A64.6 64.6 0 0 0 1000 838.8V258.1A64.6 64.6 0 0 0 935.6 193.6ZM967.8 258V290.3H580.6V258.1A32.3 32.3 0 0 1 612.9 225.8H935.6A32.3 32.3 0 0 1 967.7 258.1ZM653.2 532.9A49.4 49.4 0 0 0 629 535V517.8A47.9 47.9 0 0 0 580.6 467.8V322.6H967.7V741.9H693.6V582.4A49.7 49.7 0 0 0 653.2 532.9ZM483 350.2A48 48 0 0 0 451.6 338.9V258.1A64.4 64.4 0 0 0 388.4 193.6 112.8 112.8 0 0 1 611.6 193.6 64.4 64.4 0 0 0 548.4 258.1V448.2A46.4 46.4 0 0 0 524.1 436.1 49.3 49.3 0 0 0 500 438.2V387.1A48.3 48.3 0 0 0 482.9 350.3ZM306.4 580.6V741.9H32.3V322.6H419.4V351.6A51.1 51.1 0 0 0 403.2 388.8V573.1A96.4 96.4 0 0 0 338.8 548.4 32.3 32.3 0 0 0 306.5 580.7ZM500 32.3A177.6 177.6 0 0 1 676.6 193.6H644.2A145.1 145.1 0 0 0 355.8 193.6H323.4A177.6 177.6 0 0 1 500 32.3ZM64.4 225.8H387.1A32.3 32.3 0 0 1 419.4 258.1V290.3H32.3V258.1A32.3 32.3 0 0 1 64.4 225.8ZM32.3 838.7V774.3H306.4V783.9A81 81 0 0 0 324.2 834.3L353.6 871H64.4A32.3 32.3 0 0 1 32.2 838.8ZM596.7 967.7H403.2V881.4L349.2 814.1A48.6 48.6 0 0 1 338.6 783.8V580.6A64.6 64.6 0 0 1 403.1 645.1V709.5H435.6V388.9A17.5 17.5 0 0 1 448.9 371.3 16.4 16.4 0 0 1 462.2 374.9 16.1 16.1 0 0 1 467.9 387.2V709.7H500V483.9A16.2 16.2 0 0 1 519 468 17.5 17.5 0 0 1 532.3 485.6V709.7H564.4V516.1A16.1 16.1 0 0 1 570.1 503.8 16.2 16.2 0 0 1 583.5 500.2 17.5 17.5 0 0 1 596.8 517.8V709.7H629.1V580.6A16.1 16.1 0 0 1 634.8 568.4 16.2 16.2 0 0 1 648.1 564.8 17.5 17.5 0 0 1 661.4 582.4V783.8A48.6 48.6 0 0 1 650.8 814.1L596.9 881.4ZM935.6 871H646.4L675.9 834.2A80.9 80.9 0 0 0 693.6 783.8V774.2H967.7V838.6A32.3 32.3 0 0 1 935.6 871ZM935.6 871M209.7 500H241.9A16.2 16.2 0 0 1 258.1 516.1H290.3A48.4 48.4 0 0 0 242 467.8V435.5H209.7V467.8A48.4 48.4 0 1 0 209.7 564.5H241.9A16.1 16.1 0 0 1 241.9 596.8H209.7A16.2 16.2 0 0 1 193.5 580.6H161.3A48.4 48.4 0 0 0 209.7 629V661.3H241.9V629A48.4 48.4 0 0 0 241.9 532.2H209.7A16.1 16.1 0 1 1 209.7 500ZM209.7 500M790.3 596.8H758.1A16.2 16.2 0 0 1 741.9 580.6H709.7A48.4 48.4 0 0 0 758.1 629V661.3H790.3V629A48.4 48.4 0 1 0 790.3 532.2H758.1A16.1 16.1 0 1 1 758.1 500H790.3A16.2 16.2 0 0 1 806.5 516.1H838.7A48.4 48.4 0 0 0 790.4 467.7V435.5H758.1V467.8A48.4 48.4 0 0 0 758.1 564.5H790.3A16.1 16.1 0 1 1 790.3 596.8ZM790.3 596.8M161.3 806.4H290.3V838.6H161.3ZM161.3 806.4M709.7 806.4H838.7V838.6H709.7ZM709.7 806.4",
        "width": 1000
      },
      "search": [
        "order-history-merchant"
      ]
    },
    {
      "uid": "f298e58aafed564253de42c1c87112fb",
      "css": "product-list-merchant",
      "code": 59417,
      "src": "custom_icons",
      "selected": true,
      "svg": {
        "path": "M1037.7 285.4L1036.9 284.7 822.7 94.2A20.3 20.3 0 0 0 816 90.1L660.9 34.7A20.4 20.4 0 0 0 633.6 52.8C633.6 57.3 626.9 160.6 523.6 162.1 419.7 160.5 413.2 57.2 413 52.8A20.4 20.4 0 0 0 385.9 34.7L231.1 90.7A20.3 20.3 0 0 0 224.3 94.8L11.5 284.7A20.4 20.4 0 0 0 10.7 313.4L11.5 314.2 181 485.5V954.1A20.4 20.4 0 0 0 201.3 974.5H847.1A20.4 20.4 0 0 0 867.5 954.1V485.5L1037 314.2A20.4 20.4 0 0 0 1037.7 285.4ZM866.8 427.5V332.9A20.4 20.4 0 1 0 826.1 332.9V932.7H220.9V332.9A20.4 20.4 0 1 0 180.1 332.9V427.7L54.9 300.7 248.8 127.2 376.3 81.1A150.1 150.1 0 0 0 671.1 81.1L798.7 127.2 992 300.7Z",
        "width": 1047
      },
      "search": [
        "product-list-merchant"
      ]
    },
    {
      "uid": "0638da02d716986d8457e677c44b9258",
      "css": "order-history-merchant-1",
      "code": 59418,
      "src": "custom_icons",
      "selected": true,
      "svg": {
        "path": "M935.6 193.6H708.9A209.5 209.5 0 0 0 291.1 193.6H64.4A64.6 64.6 0 0 0 0 258V838.7A64.6 64.6 0 0 0 64.4 903.2H370.9V1000H629V903.2H935.6A64.6 64.6 0 0 0 1000 838.8V258.1A64.6 64.6 0 0 0 935.6 193.6ZM967.8 258V290.3H580.6V258.1A32.3 32.3 0 0 1 612.9 225.8H935.6A32.3 32.3 0 0 1 967.7 258.1ZM653.2 532.9A49.4 49.4 0 0 0 629 535V517.8A47.9 47.9 0 0 0 580.6 467.8V322.6H967.7V741.9H693.6V582.4A49.7 49.7 0 0 0 653.2 532.9ZM483 350.2A48 48 0 0 0 451.6 338.9V258.1A64.4 64.4 0 0 0 388.4 193.6 112.8 112.8 0 0 1 611.6 193.6 64.4 64.4 0 0 0 548.4 258.1V448.2A46.4 46.4 0 0 0 524.1 436.1 49.3 49.3 0 0 0 500 438.2V387.1A48.3 48.3 0 0 0 482.9 350.3ZM306.4 580.6V741.9H32.3V322.6H419.4V351.6A51.1 51.1 0 0 0 403.2 388.8V573.1A96.4 96.4 0 0 0 338.8 548.4 32.3 32.3 0 0 0 306.5 580.7ZM500 32.3A177.6 177.6 0 0 1 676.6 193.6H644.2A145.1 145.1 0 0 0 355.8 193.6H323.4A177.6 177.6 0 0 1 500 32.3ZM64.4 225.8H387.1A32.3 32.3 0 0 1 419.4 258.1V290.3H32.3V258.1A32.3 32.3 0 0 1 64.4 225.8ZM32.3 838.7V774.3H306.4V783.9A81 81 0 0 0 324.2 834.3L353.6 871H64.4A32.3 32.3 0 0 1 32.2 838.8ZM596.7 967.7H403.2V881.4L349.2 814.1A48.6 48.6 0 0 1 338.6 783.8V580.6A64.6 64.6 0 0 1 403.1 645.1V709.5H435.6V388.9A17.5 17.5 0 0 1 448.9 371.3 16.4 16.4 0 0 1 462.2 374.9 16.1 16.1 0 0 1 467.9 387.2V709.7H500V483.9A16.2 16.2 0 0 1 519 468 17.5 17.5 0 0 1 532.3 485.6V709.7H564.4V516.1A16.1 16.1 0 0 1 570.1 503.8 16.2 16.2 0 0 1 583.5 500.2 17.5 17.5 0 0 1 596.8 517.8V709.7H629.1V580.6A16.1 16.1 0 0 1 634.8 568.4 16.2 16.2 0 0 1 648.1 564.8 17.5 17.5 0 0 1 661.4 582.4V783.8A48.6 48.6 0 0 1 650.8 814.1L596.9 881.4ZM935.6 871H646.4L675.9 834.2A80.9 80.9 0 0 0 693.6 783.8V774.2H967.7V838.6A32.3 32.3 0 0 1 935.6 871ZM935.6 871M209.7 500H241.9A16.2 16.2 0 0 1 258.1 516.1H290.3A48.4 48.4 0 0 0 242 467.8V435.5H209.7V467.8A48.4 48.4 0 1 0 209.7 564.5H241.9A16.1 16.1 0 0 1 241.9 596.8H209.7A16.2 16.2 0 0 1 193.5 580.6H161.3A48.4 48.4 0 0 0 209.7 629V661.3H241.9V629A48.4 48.4 0 0 0 241.9 532.2H209.7A16.1 16.1 0 1 1 209.7 500ZM209.7 500M790.3 596.8H758.1A16.2 16.2 0 0 1 741.9 580.6H709.7A48.4 48.4 0 0 0 758.1 629V661.3H790.3V629A48.4 48.4 0 1 0 790.3 532.2H758.1A16.1 16.1 0 1 1 758.1 500H790.3A16.2 16.2 0 0 1 806.5 516.1H838.7A48.4 48.4 0 0 0 790.4 467.7V435.5H758.1V467.8A48.4 48.4 0 0 0 758.1 564.5H790.3A16.1 16.1 0 1 1 790.3 596.8ZM790.3 596.8M161.3 806.4H290.3V838.6H161.3ZM161.3 806.4M709.7 806.4H838.7V838.6H709.7ZM709.7 806.4",
        "width": 1000
      },
      "search": [
        "order-history-merchant"
      ]
    },
    {
      "uid": "3890ab07530dffc9b6a27dcad6ead8e8",
      "css": "my-money-merchant",
      "code": 59419,
      "src": "custom_icons",
      "selected": true,
      "svg": {
        "path": "M500.6 0A500 500 0 1 0 1001.3 500 500.9 500.9 0 0 0 500.6 0ZM500.6 944.9A444.8 444.8 0 1 1 946.1 500.1 444.8 444.8 0 0 1 500.6 944.9ZM513.2 296.2A92.9 92.9 0 0 1 603 364.6 27.5 27.5 0 0 0 656.5 351.9 148.8 148.8 0 0 0 535.4 243.2V208.4A27.5 27.5 0 1 0 480.3 208.4V243.3A122.5 122.5 0 0 0 414.4 275.8 151 151 0 0 0 373.4 382.5 129 129 0 0 0 481.7 505L487.2 506.1 501.2 508.9C503.2 509.3 508.5 510.9 510.8 511.6A19.8 19.8 0 0 1 513 512.5L514.1 512.9 522.8 516.3A22.9 22.9 0 0 1 525 517.3C529 519.4 530 520 533 521.7L537.5 524.4 538.4 525 539.3 525.6C548.2 531.1 592.7 560.7 594.5 603.7A76.5 76.5 0 0 1 574.3 664.3 101.7 101.7 0 0 1 445.4 671.5 70.3 70.3 0 0 1 413.1 622.8 27.5 27.5 0 1 0 358.4 628.9C365.7 695.1 429.4 735.6 480.1 744.3V773.7A27.5 27.5 0 1 0 535.2 773.7V742.6A150.8 150.8 0 0 0 613.2 703.2 131.8 131.8 0 0 0 649.6 601.4C646.7 532.4 586.9 490.1 568.1 478.6L565.6 477 561 474.3C557.4 472.1 555.4 471 550.2 468.3A78.1 78.1 0 0 0 542.6 464.9L534.5 461.7A74.9 74.9 0 0 0 526.7 458.8C521.3 457.2 516 455.6 511.5 454.7L497.8 452 492.2 450.9A73.4 73.4 0 0 1 428.3 381.7 94.3 94.3 0 0 1 452.6 315 78.3 78.3 0 0 1 513.2 296.2Z",
        "width": 1001
      },
      "search": [
        "my-money-merchant"
      ]
    },
    {
      "uid": "9875d30489db584d5933538704d527b3",
      "css": "icon-balance-increase",
      "code": 59420,
      "src": "custom_icons",
      "selected": true,
      "svg": {
        "path": "M441.8 644A315.6 315.6 0 1 0 126.2 328.4 315.9 315.9 0 0 0 441.8 644ZM441.8 54.9A273.5 273.5 0 1 1 168.3 328.4 273.8 273.8 0 0 1 441.8 54.9ZM452.3 412.6H378.7A21 21 0 1 0 378.7 454.7H420.7V475.7A21 21 0 0 0 462.8 475.7V453.6A73.5 73.5 0 0 0 452.3 307.4H431.3A31.6 31.6 0 0 1 431.3 244.3H504.9A21 21 0 0 0 504.9 202.2H462.8V181.2A21 21 0 0 0 420.7 181.2V203.3A73.5 73.5 0 0 0 431.3 349.5H452.3A31.6 31.6 0 0 1 452.3 412.6ZM862.5 601.9H694.2A21 21 0 0 0 694.2 644H811.8L547 908.7 393.5 755.3A21 21 0 0 0 363.8 755.3L132.4 986.7A21 21 0 1 0 162.1 1016.5L378.7 799.9 532.1 953.4A21 21 0 0 0 561.9 953.4L841.5 673.7V791.2A21 21 0 1 0 883.6 791.2V622.9A21 21 0 0 0 862.5 601.9Z",
        "width": 1000
      },
      "search": [
        "icon-balance-increase"
      ]
    },
    {
      "uid": "5506def8f432cf279c5f3560c61eca6a",
      "css": "icon-withdrawal-request",
      "code": 59421,
      "src": "custom_icons",
      "selected": true,
      "svg": {
        "path": "M1214.7 0H52.4A52.4 52.4 0 0 0 0 52.4V565.4A52.4 52.4 0 0 0 52.4 617.8H376.6C372.9 616.5 369.2 615.2 365.6 613.7 352.6 608 350.3 592.7 355.1 581.2H52.4A15.7 15.7 0 0 1 36.6 565.4V52.4A15.7 15.7 0 0 1 52.4 36.6H1214.7A15.7 15.7 0 0 1 1230.4 52.4V565.4A15.7 15.7 0 0 1 1214.7 581.2H903.6A28.7 28.7 0 0 1 909.6 617.8H1214.7A52.4 52.4 0 0 0 1267 565.4V52.4A52.4 52.4 0 0 0 1214.7 0ZM1026.2 188.5H235.6A31.4 31.4 0 0 0 204.2 219.9V392.7A31.4 31.4 0 0 0 235.6 424.1H351.3A29.1 29.1 0 0 1 350.8 419.8V416.8A24.9 24.9 0 0 1 349.5 409.3 81 81 0 0 1 350.8 396.5L350.2 392.7A15.2 15.2 0 0 1 350.2 390H238.2V222.5H1023.6V390H891A186.8 186.8 0 0 1 891.9 415.4 24.3 24.3 0 0 1 890.1 424.1H1026.2A31.4 31.4 0 0 0 1057.6 392.7V219.9A31.4 31.4 0 0 0 1026.2 188.5ZM879.6 1000H387.4A41.9 41.9 0 0 1 345.5 958.1V222.5A34.1 34.1 0 0 1 379.6 188.5H887.4A34.1 34.1 0 0 1 921.5 222.5V958.1A41.9 41.9 0 0 1 879.6 1000ZM379.6 222.5H379.6V958.1A7.9 7.9 0 0 0 387.4 966H879.6A7.9 7.9 0 0 0 887.4 958.1V222.5ZM633.5 683.5A180.6 180.6 0 1 0 452.9 502.6 180.6 180.6 0 0 0 633.5 683.5ZM633.5 356.5A146.3 146.3 0 1 1 487.2 502.6 146.6 146.6 0 0 1 633.8 356.3ZM633.5 684A181.2 181.2 0 1 1 814.7 502.6 181.4 181.4 0 0 1 633.5 684ZM633.5 322.7A180.1 180.1 0 1 0 813.6 502.6 180.3 180.3 0 0 0 633.5 322.7ZM633.5 649.7H633.5A146.6 146.6 0 1 1 633.5 356H633.5A146.9 146.9 0 1 1 633.5 649.7ZM633.5 357A145.8 145.8 0 1 0 633.5 648.6H633.5A145.8 145.8 0 0 0 633.5 357ZM636.1 568.4A19.4 19.4 0 0 0 631.2 568.4C616.5 567.4 605.3 557.1 605 544.7A17.4 17.4 0 0 0 570.7 544.7C570.7 568.3 589.3 589 616.2 595.4V606.3A17.4 17.4 0 0 0 650.6 606.3V595.4C680.7 588.3 699.9 563.5 695.5 537.3S664.9 491.8 633.5 491.8C617.8 491.8 605.1 481.4 605.1 468S617.8 444 633.5 444 661.9 454.5 661.9 468A17.4 17.4 0 0 0 696.2 468C696.2 444.3 677.6 423.6 650.7 417.2V409.1A17.4 17.4 0 0 0 616.3 409.1V417.1C586.2 424.3 567.1 449.2 571.4 475.2S602.2 520.8 633.5 520.8C648.7 520.8 661.4 530.8 662 543.6S651.3 567.4 636.1 568.4ZM634.9 621.3H632.4A16.6 16.6 0 0 1 616 606.3V595.8C589.2 589.2 570.5 568.2 570.4 544.6A16.5 16.5 0 0 1 588.2 529.6H589.4A16.5 16.5 0 0 1 605.8 544.6C605.8 556.9 616.8 566.9 631.2 567.9A19.4 19.4 0 0 1 636.1 567.9C651.1 566.9 662.3 556.2 661.7 543.7S648.8 521.3 633.9 521.3H633.9C602.5 521.3 575.6 501.6 571 475.3S586 424.1 616 416.7V409.1A18 18 0 0 1 651.4 409.1V416.8C678.2 423.4 696.9 444.3 696.9 468A18 18 0 0 1 661.5 468C661.5 455 649 444.5 633.7 444.5S605.9 455 605.9 467.9A21.5 21.5 0 0 0 614 484.4 30.6 30.6 0 0 0 633.5 491.3H633.5C664.9 491.3 691.8 511 696.3 537.3S681.4 588.5 651.4 595.9V606.3A16.6 16.6 0 0 1 634.9 621.3ZM633.6 620.2A15.7 15.7 0 0 0 650.3 606.2V595H650.7C680.4 587.9 699.6 563.2 695.3 537.4S664.6 492.1 633.5 492.1H633.5A31.4 31.4 0 0 1 613.1 485 22.3 22.3 0 0 1 604.7 467.7C604.7 454.2 617.6 443.3 633.5 443.3S662.4 454.2 662.4 467.7A15.7 15.7 0 0 0 677.8 481.7H680.6A15.7 15.7 0 0 0 696.3 467.7C696.3 444.5 677.7 423.8 651.2 417.4L650.8 417.4V409.1A16.9 16.9 0 0 0 617.5 409.1V417.5L617.1 417.5C587.4 424.6 568.3 449.3 572.5 475.1S603.3 520.2 634.1 520.2H634.1C649.8 520.2 662.3 530.4 663 543.5S652 567.8 636.4 568.8H636.4A18.5 18.5 0 0 0 631.6 568.8C616.5 567.7 605.4 557.3 605.1 544.6A16.9 16.9 0 0 0 571.8 544.6C571.8 567.7 590.5 588.4 617 594.8L617.4 594.8V606A15.7 15.7 0 0 0 633.5 620.2ZM779.6 972.8C779.2 970.6 769.4 918.5 801.2 879.4 834.3 838.7 892.3 849.3 894.7 849.8L888.3 883.2C887.9 883.2 847.8 876.1 827.6 900.9 806 927.4 812.9 966 813 966.4ZM487.4 972.8L454 966.3C454 966 460.9 927.4 439.4 900.9 419.2 876.1 379.1 883.1 378.6 883.2L372.3 849.8C374.7 849.3 432.6 838.7 465.8 879.4 497.4 918.5 487.8 970.6 487.4 972.8Z",
        "width": 1267
      },
      "search": [
        "icon-withdrawal-request"
      ]
    },
    {
      "uid": "12fc8634ebc177b4843d74168122a6a7",
      "css": "order_history_merchant",
      "code": 59424,
      "src": "custom_icons",
      "selected": true,
      "svg": {
        "path": "M182.6 490.7C182.6 500.2 177.3 506.4 165.6 506.4H148V475.5H165.6C177.3 475.5 182.6 481.4 182.6 490.7ZM126.9 458.1V563.1H148V522.2H157.9L181.1 563.1H205.4L180.3 520.5A30.3 30.3 0 0 0 204.2 490.3C204.2 472.7 191.6 458.1 166.3 458.1ZM244.4 491.8V479.7H223.3V602.8H244.4V551.2A34 34 0 0 0 272 564.5C293.3 564.5 310 547.2 310 521.1S293.3 478.4 272 478.4A33.3 33.3 0 0 0 244.4 491.8ZM288.5 521.1C288.5 536.9 277.8 546 266.4 546 255.1 546 244.4 537.2 244.4 521.4S255.1 496.9 266.4 496.9C277.8 496.9 288.5 505.3 288.5 521.1ZM938.5 194.7H711.3A209.9 209.9 0 0 0 292.7 194.7H65.6A64.7 64.7 0 0 0 1 259.4V841.3A64.7 64.7 0 0 0 65.6 905.9H372.7V1002.9H631.3V905.9H938.5A64.7 64.7 0 0 0 1003.1 841.3V259.4A64.7 64.7 0 0 0 938.5 194.7ZM970.8 259.4V291.7H582.9V259.4A32.4 32.4 0 0 1 615.2 227H938.5A32.4 32.4 0 0 1 970.8 259.4ZM655.6 534.8A49.5 49.5 0 0 0 631.4 536.9V519.7A48 48 0 0 0 582.9 469.6V324.1H970.8V744.3H696V584.4A49.8 49.8 0 0 0 655.5 534.8ZM484.9 351.7A48.2 48.2 0 0 0 453.5 340.4V259.4A64.7 64.7 0 0 0 390.2 194.8 113 113 0 0 1 613.9 194.8 64.7 64.7 0 0 0 550.5 259.4V450A46.5 46.5 0 0 0 526.3 437.8 49.4 49.4 0 0 0 502.1 439.9V388.7A48.5 48.5 0 0 0 484.9 351.7ZM308.1 582.6V744.3H33.3V324.1H421.2V353.1A51.3 51.3 0 0 0 405.1 390.4V575.1A96.6 96.6 0 0 0 340.4 550.4 32.4 32.4 0 0 0 308.1 582.7ZM502 33.1A178 178 0 0 1 679 194.7H646.6A145.4 145.4 0 0 0 357.5 194.7H325.1A178 178 0 0 1 502 33.1ZM65.6 227H388.9A32.4 32.4 0 0 1 421.3 259.4V291.7H33.3V259.4A32.4 32.4 0 0 1 65.6 227ZM33.3 841.3V776.6H308.1V786.3A81.1 81.1 0 0 0 325.8 836.8L355.3 873.6H65.6A32.4 32.4 0 0 1 33.3 841.3ZM599 970.6H405.1V884.1L351 816.6A48.7 48.7 0 0 1 340.4 786.3V582.7A64.7 64.7 0 0 1 405.1 647.3V712H437.4V390.4A17.5 17.5 0 0 1 450.7 372.8 16.4 16.4 0 0 1 464 376.4 16.1 16.1 0 0 1 469.7 388.7V712H502V485.7A16.2 16.2 0 0 1 521 469.7 17.5 17.5 0 0 1 534.3 487.4V712H566.7V518A16.1 16.1 0 0 1 572.4 505.7 16.3 16.3 0 0 1 585.7 502.1 17.5 17.5 0 0 1 599 519.7V712H631.3V582.7A16.1 16.1 0 0 1 637 570.3 16.3 16.3 0 0 1 650.3 566.7 17.5 17.5 0 0 1 663.7 584.4V786.3A48.7 48.7 0 0 1 653 816.6L599 884.1ZM938.5 873.6H648.8L678.3 836.8A81.1 81.1 0 0 0 696 786.3V776.6H970.8V841.3A32.4 32.4 0 0 1 938.5 873.6ZM938.5 873.6M162.6 808.9H291.9V841.3H162.6ZM162.6 808.9M712.2 808.9H841.5V841.3H712.2ZM712.2 808.9M755.4 490.7C755.4 500.2 750.1 506.4 738.4 506.4H720.8V475.5H738.4C750.1 475.5 755.4 481.4 755.4 490.7ZM699.7 458.1V563.1H720.8V522.2H730.7L753.9 563.1H778.3L753.1 520.5A30.3 30.3 0 0 0 777.1 490.3C777.1 472.7 764.4 458.1 739.1 458.1ZM817.2 491.8V479.7H796.2V602.8H817.2V551.2A34 34 0 0 0 844.8 564.5C866.1 564.5 882.8 547.2 882.8 521.1S866.1 478.4 844.8 478.4A33.3 33.3 0 0 0 817.2 491.8ZM861.3 521.1C861.3 536.9 850.6 546 839.2 546 827.9 546 817.2 537.2 817.2 521.4S827.9 496.9 839.2 496.9C850.6 496.9 861.3 505.3 861.3 521.1Z",
        "width": 1005
      },
      "search": [
        "order_history_merchant"
      ]
    },
    {
      "uid": "7967c24cf9a1c88047d7f4edd2232e9f",
      "css": "my_rupiah",
      "code": 59425,
      "src": "custom_icons",
      "selected": true,
      "svg": {
        "path": "M500.6 0A500 500 0 1 0 500.6 1000C776.7 1000 1001.2 775.7 1001.2 500A500.9 500.9 0 0 0 500.6 0ZM500.6 944.9A444.9 444.9 0 1 1 946.1 500 444.9 444.9 0 0 1 500.6 944.9ZM407.2 406.3C407.2 444.1 385.4 471.2 335.5 471.2H270.5V343.2H335.5C385.9 343.2 407.2 368 407.2 406.3ZM226.4 306.9V644.8H270.5V506.6H323.8L404.3 644.8H457.2L372.3 503.2C429 490.6 452.8 449.4 452.8 406.3 452.8 351 415 306.9 335.5 306.9ZM565.3 428.1V379.1H521.2V770.8H565.3V595.8A114.9 114.9 0 0 0 664.7 649.1C735.9 649.1 790.7 593.4 790.7 511 790.7 428.1 735.9 374.7 664.7 374.7 616.2 374.7 581.3 400 565.3 428.1ZM745.6 511C745.6 573.5 704.4 610.4 655.4 610.4 607.5 610.4 565.3 574 565.3 511.5 565.3 449.9 607.5 413 655.4 413 704.4 413 745.6 448.4 745.6 511Z",
        "width": 1001
      },
      "search": [
        "my_rupiah"
      ]
    },
    {
      "uid": "fc3c054fbf733c820f3311060f0966e3",
      "css": "funds-on-hold",
      "code": 59426,
      "src": "custom_icons",
      "selected": true,
      "svg": {
        "path": "M460.2 678.6A19.6 19.6 0 1 0 432.5 678.6 19.6 19.6 0 0 0 460.2 678.6ZM460.2 678.6M367.6 214.6C367.6 333.2 464.1 429.6 582.6 429.6S797.6 333.2 797.6 214.6 701.2-0.4 582.6-0.4 367.6 96.1 367.6 214.6ZM758.5 214.6C758.5 311.6 679.6 390.5 582.6 390.5S406.7 311.6 406.7 214.6 485.6 38.7 582.6 38.7 758.5 117.6 758.5 214.6ZM758.5 214.6M225.3 994.8A19.5 19.5 0 0 0 252.9 995L347.6 901.7A59.1 59.1 0 0 0 361.5 841L381.9 821.3A58.3 58.3 0 0 1 422.6 804.9H682.5A175 175 0 0 0 805.2 755.1C806.5 753.7 794.8 767.5 982.4 543.3A78.2 78.2 0 0 0 863.5 441.8L748.1 560.4A78.6 78.6 0 0 0 687.3 531.3H469.4A252.2 252.2 0 0 0 371.5 511.7C277.4 511.7 195.2 555.2 151.1 636.7A58.4 58.4 0 0 0 98.8 652.9L5.9 746.1A19.5 19.5 0 0 0 5.8 773.7ZM371.5 550.8A213.4 213.4 0 0 1 457.6 568.7 19.5 19.5 0 0 0 465.4 570.4H687.4A39.1 39.1 0 1 1 687.4 648.5H527.9A19.5 19.5 0 1 0 527.9 687.6H687.4A78.1 78.1 0 0 0 764.8 599.2C876.4 484.5 892.1 468.4 892.8 467.6A39.1 39.1 0 1 1 952.5 518.1L777.2 727.7A136.1 136.1 0 0 1 682.5 765.8H422.6A97.2 97.2 0 0 0 354.8 793.2L338.2 809.2 185 656.1C220.8 589 288 550.8 371.5 550.8ZM126.5 680.5A19.5 19.5 0 0 1 150.7 677.8C154.1 679.8 144.4 671 320 846.4A19.6 19.6 0 0 1 320.1 873.9L239.3 953.5 47.3 760ZM126.5 680.5M559.2 97.4V120.3A58.6 58.6 0 0 0 578.7 234.2 19.5 19.5 0 1 1 578.7 273.3C570.4 273.3 561.3 268 553.3 258.5A19.5 19.5 0 0 0 523.4 283.6C533.8 296.1 546.1 304.7 559.2 309.1V331.9A19.5 19.5 0 1 0 598.2 331.9V309A58.6 58.6 0 0 0 578.7 195.1 19.5 19.5 0 0 1 578.7 156C585.6 156 592.9 159.5 599.8 166.2A19.5 19.5 0 0 0 627 138.1 75.5 75.5 0 0 0 598.2 120.1V97.4A19.5 19.5 0 1 0 559.2 97.4ZM559.2 97.4",
        "width": 1000
      },
      "search": [
        "funds-on-hold"
      ]
    },
    {
      "uid": "2c9524b91b58698ce880b66fc7861d6d",
      "css": "point-transaction-rp",
      "code": 59403,
      "src": "custom_icons",
      "selected": true,
      "svg": {
        "path": "M666 732L627.6 677.6C650.3 669.6 663.2 651.5 663.2 626.5 663.2 591.4 637.8 570.1 595.7 570.1H532.6V732H555.7V682.7H595.7C599.2 682.7 602.6 682.5 605.9 682.3L640.8 732ZM595 663.1H555.7V590.2H595C624.6 590.2 640.1 603.4 640.1 626.5S624.6 663.1 595 663.1ZM760.1 608.3C742.1 608.3 726.4 615.2 716.4 628.8V609.4H695.1V776.8H717.4V713.5A52.3 52.3 0 0 0 760.1 733.4C796 733.4 822.1 708.4 822.1 670.7 822.1 633.2 796 608.3 760.1 608.3ZM758.3 714C734.9 714 717.1 696.8 717.1 670.7 717.1 644.8 734.9 627.7 758.3 627.7 781.9 627.7 799.7 644.8 799.7 670.7 799.7 696.8 781.9 714 758.3 714ZM880.4 524.6A253.8 253.8 0 0 0 776.7 432.9 19.5 19.5 0 1 0 759.8 468 215.6 215.6 0 0 1 881.4 661.2 214.7 214.7 0 0 1 856.4 761.7 19.5 19.5 0 1 0 890.8 780 253.8 253.8 0 0 0 920.3 661.2 252.4 252.4 0 0 0 880.4 524.6ZM697.6 408H696.3A19.5 19.5 0 1 0 696.3 446.9H697.5A19.5 19.5 0 0 0 697.6 408ZM574.4 854.5A214.5 214.5 0 0 1 477.8 560.7 19.5 19.5 0 1 0 443.4 542.4 253.4 253.4 0 0 0 557.5 889.6 19.5 19.5 0 1 0 574.4 854.5ZM637.9 875.5H636.7A19.5 19.5 0 0 0 636.6 914.5H637.9A19.5 19.5 0 1 0 637.9 875.5ZM755.5 342.1A89.4 89.4 0 0 0 746.9 326.2H797.6A89.6 89.6 0 0 0 797.6 146.9H641.6A89.6 89.6 0 0 0 567.7 6.7H90.4A89.6 89.6 0 0 0 90.4 185.9H246.4A89.4 89.4 0 0 0 246.4 287.2H195.6A89.6 89.6 0 0 0 139.9 446.9 89.4 89.4 0 0 0 139.9 587.2 89.4 89.4 0 0 0 139.9 727.5 89.6 89.6 0 0 0 195.6 887.2H425.2A331.1 331.1 0 1 0 755.5 342.1ZM797.6 185.9A50.7 50.7 0 1 1 797.6 287.2H320.3A50.7 50.7 0 1 1 320.3 185.9ZM90.4 146.9A50.7 50.7 0 0 1 90.4 45.6H567.7A50.7 50.7 0 1 1 567.7 146.9ZM195.6 326.2H672.9A50.6 50.6 0 0 1 695 331.2C685.8 330.5 676.5 330.1 667.1 330.1A330.1 330.1 0 0 0 432.7 427.4H195.6A50.7 50.7 0 1 1 195.6 326.1ZM195.6 466.4H399.4A330.2 330.2 0 0 0 349.4 567.7H195.6A50.7 50.7 0 1 1 195.6 466.4ZM195.6 606.7H340.4A331.4 331.4 0 0 0 339.2 708H195.6A50.7 50.7 0 0 1 195.6 606.7ZM195.6 848.2A50.7 50.7 0 1 1 195.6 746.9H347.2A329.9 329.9 0 0 0 393.9 848.2ZM667.1 953.5A292.2 292.2 0 1 1 959.3 661.2 292.5 292.5 0 0 1 667.1 953.4Z",
        "width": 1000
      },
      "search": [
        "point-transaction-rp"
      ]
    },
    {
      "uid": "ef41bea3549be1ec28b83084b855ebd4",
      "css": "escrow-rp",
      "code": 59423,
      "src": "custom_icons",
      "selected": true,
      "svg": {
        "path": "M879.9 571A715 715 0 0 0 771.8 397.6 805.3 805.3 0 0 0 633.4 266.1L739.4 69.4A24.6 24.6 0 0 0 734.8 39.9C707.4 13.1 678.3 0 645.8 0 616.1 0 588.9 11.2 565.2 21.2 546.5 28.9 528.8 36.4 514.5 36.4A31.6 31.6 0 0 1 502.6 34.3C453.1 16.2 415.1 5 378.3 5 331.7 5 292 23.7 253.2 63.6A25.1 25.1 0 0 0 250.3 94.8L364.6 267.5A818.8 818.8 0 0 0 228 397.6 721.5 721.5 0 0 0 119.9 571 589.5 589.5 0 0 0 70.5 806.3 193.8 193.8 0 0 0 264 999.8H735.8A193.8 193.8 0 0 0 929.3 806.3 589.5 589.5 0 0 0 879.9 571ZM303.5 84.4C327.6 63.6 350.7 54.5 378.3 54.5 407.8 54.5 441.1 64.4 485.4 80.9A84.5 84.5 0 0 0 514.3 85.9C538.6 85.9 561.9 76.3 584.1 66.9 605.5 58 625.9 49.5 645.6 49.5 655.2 49.5 668.7 51.1 685.7 63.2L586 248.6H412.2ZM735.8 949.9H264A143.8 143.8 0 0 1 120.4 806.3C120.4 673.1 169.2 546.7 265.2 430.7A763 763 0 0 1 406.4 298.5H593C611.9 311.6 673.5 357.3 734.2 430.7 830.4 546.7 879.1 672.9 879.1 806.3A143.2 143.2 0 0 1 735.8 949.9ZM501.5 613.8Q501.5 671.2 451.4 686.1L512.1 770.3H462.4L407 692.4H355.6V770.3H316.5V538.5H402.7Q455.7 538.5 478.6 556.4T501.5 613.8ZM404.4 656.9Q437.5 656.9 449.4 646.6T461.4 613.6Q461.4 590.9 449.1 582.5T405.3 574H355.6V656.9ZM638.8 591.3A83.8 83.8 0 0 1 699.5 615.8Q724.7 640.3 724.7 681.1T699.6 747.4Q674.6 773 641.3 773T581.4 743.8V834.6H544.3V593.9H581.4V624.8Q603.3 591.3 638.8 591.3ZM580.8 682.5Q580.8 707.7 596 723.7A49.3 49.3 0 0 0 633.2 739.8 52.7 52.7 0 0 0 671.3 723.9Q687.5 708 687.5 682.6A58.7 58.7 0 0 0 671.6 640.5 50.8 50.8 0 0 0 633.5 623.8 48.7 48.7 0 0 0 596 640.5Q580.8 657.3 580.8 682.5Z",
        "width": 1000
      },
      "search": [
        "escrow-rp"
      ]
    },
    {
      "uid": "ce3ed4a002a1db03037b60b2957abc8c",
      "css": "e-voucher-rp",
      "code": 59414,
      "src": "custom_icons",
      "selected": true,
      "svg": {
        "path": "M0 0V1000H1764.7V0ZM1705.9 941.2H58.8V58.8H1705.9ZM911.8 235.3V214.7A97.1 97.1 0 0 0 760.8 133.9L608.8 235.3H597.1L445.1 134A97.1 97.1 0 0 0 294.1 214.7V235.3H176.5V411.8H235.3V882.4H941.2V411.8H1000V235.3ZM352.9 214.7A38.2 38.2 0 0 1 412.5 182.8L491.2 235.3H352.9ZM558.8 823.5H294.1V411.8H558.8ZM558.8 352.9H235.3V294.1H558.8ZM793.4 182.9A38.2 38.2 0 0 1 852.9 214.7V235.3H714.7ZM882.4 823.5H617.6V411.8H882.3ZM941.2 352.9H617.6V294.1H941.2ZM1431.7 878.7V806.3H1656.1V878.7ZM1287 733.9V697.7H1656.1V733.9ZM1250.8 625.3V589.2H1656.1V625.3ZM1287 516.8V473.3H1656.1V516.8ZM1447 215.5Q1447 265.8 1407.2 280.5L1460.2 355.3H1402.7L1356.3 288.6H1324V355.3H1277.3V146.1H1356.6Q1405.4 146.1 1426.2 162.6T1447 215.5ZM1358.1 248.2A50.2 50.2 0 0 0 1390.7 240.4 31.6 31.6 0 0 0 1399.4 215.7 26.5 26.5 0 0 0 1390.5 192.5 57.5 57.5 0 0 0 1359 186.2H1324V248.2ZM1578.7 181.7A62.2 62.2 0 0 1 1625.2 203.4 77 77 0 0 1 1645.6 258.2 78.5 78.5 0 0 1 1625.2 313.4 62.9 62.9 0 0 1 1577.4 335.6 52.6 52.6 0 0 1 1533.4 313.7V387.2H1491.9V184.2H1533.4V200.8A61.8 61.8 0 0 1 1578.7 181.7ZM1532.9 258.9A43.3 43.3 0 0 0 1543.1 288.6 31.5 31.5 0 0 0 1567.6 300.1 33.6 33.6 0 0 0 1592.8 288.6 41.4 41.4 0 0 0 1603.7 259 44.6 44.6 0 0 0 1593.1 228.8 32.3 32.3 0 0 0 1567.9 216.6 31.2 31.2 0 0 0 1543.1 228.7 45.4 45.4 0 0 0 1532.9 258.9Z",
        "width": 1765
      },
      "search": [
        "e-voucher-rp"
      ]
    }
  ]
}