<svg xmlns="http://www.w3.org/2000/svg" width="29.538" height="29.25" viewBox="0 0 29.538 29.25">
    <path fill="#fff" d="M29.813 9.457h-3.22a4.593 4.593 0 0 0 .267-1.5 4.41 4.41 0 0 0-4.43-4.444 4.345 4.345 0 0 0-3.691 1.969L18 6.49l-.738-1.02a4.494 4.494 0 0 0-3.691-2.1 4.547 4.547 0 0 0-4.163 6.087h-3.22a2.956 2.956 0 0 0-2.939 3l-.014 17.2A2.863 2.863 0 0 0 6.1 32.625h23.67a2.98 2.98 0 0 0 3-2.967v-17.2a2.979 2.979 0 0 0-2.957-3.001zM22.5 6.4a1.477 1.477 0 1 1-1.477 1.477A1.481 1.481 0 0 1 22.5 6.4zm-9 0a1.477 1.477 0 1 1-1.477 1.477A1.481 1.481 0 0 1 13.5 6.4zm-7.312 6.059h7.5L10.617 16.7l2.391 1.758 3.515-4.858.014-.014-.014 16.073H6.188zm23.625 17.2H19.477V13.6l3.516 4.859 2.39-1.759-3.073-4.248h7.5z" transform="translate(-3.234 -3.375)"/>
</svg>
