<svg xmlns="http://www.w3.org/2000/svg" width="28.5" height="27" viewBox="0 0 28.5 27">
    <path fill="#fff" d="M31.5 27v1.5a3.009 3.009 0 0 1-3 3h-21a3 3 0 0 1-3-3v-21a3 3 0 0 1 3-3h21a3.009 3.009 0 0 1 3 3V9H18a3 3 0 0 0-3 3v12a3 3 0 0 0 3 3zM18 24h15V12H18zm6-3.75A2.25 2.25 0 1 1 26.25 18 2.247 2.247 0 0 1 24 20.25z" transform="translate(-4.5 -4.5)"/>
</svg>
